Division,WeightClassKg,Place,Name,Team,BodyweightKg,Best3SquatKg,Best3BenchKg,Best3DeadliftKg,TotalKg,Equipment,Event,Sex
Boys,51.71,1,Rolando Gualardo,Frisco Centennial,51.71,102.06,56.7,113.4,272.16,Single-ply,SBD,M
Boys,51.71,2,Reid Morris,Frisco Wakeland,50.39,99.79,52.16,95.25,247.21,Single-ply,SBD,M
Boys,51.71,3,D. Sanders,Prosper,46.77,68.04,36.29,72.57,176.9,Single-ply,SBD,M
Boys,51.71,DQ,John Hammer,Frisco Centennial,47.4,81.65,,,,Single-ply,SBD,M
Boys,55.79,1,Nate Lunsford,Frisco Wakeland,54.16,174.63,92.99,172.37,439.98,Single-ply,SBD,M
Boys,55.79,2,Gavin Carroll,Frisco Wakeland,55.57,145.15,77.11,151.95,374.21,Single-ply,SBD,M
Boys,55.79,3,Zeke Castillo,Frisco Wakeland,55.52,147.42,74.84,154.22,376.48,Single-ply,SBD,M
Boys,55.79,4,Blake Battle,Frisco Liberty,55.75,131.54,74.84,129.27,335.66,Single-ply,SBD,M
Boys,55.79,5,Chris Medlin,Frisco Liberty,55.38,102.06,56.7,111.13,269.89,Single-ply,SBD,M
Boys,55.79,6,M. Stone,Prosper,55.79,97.52,54.43,90.72,242.67,Single-ply,SBD,M
Boys,55.79,7,John Boughton,Prosper,54.39,90.72,52.16,97.52,240.4,Single-ply,SBD,M
Boys,59.87,1,Matthew Read,Frisco Heritage,56.93,97.52,56.7,120.2,274.42,Single-ply,SBD,M
Boys,59.87,DQ,Andrew Zamaripa,Frisco Lone Star,58.15,120.2,,,,Single-ply,SBD,M
Boys,59.87,DQ,Jordan Rhoades,Frisco Independence,59.33,,,,,Single-ply,SBD,M
Boys,59.87,DQ,Johnny Wilkins,Frisco Reedy,58.33,124.74,,,,Single-ply,SBD,M
Boys,59.87,DQ,Austin Hoxey,Frisco Reedy,59.28,115.67,,,,Single-ply,SBD,M
Boys,67.13,1,Jake Schumacher,Frisco Centennial,66.59,176.9,117.93,174.63,469.47,Single-ply,SBD,M
Boys,67.13,2,Nick Ellis,Prosper,66.45,156.49,97.52,170.1,424.11,Single-ply,SBD,M
Boys,67.13,3,Nick Cryer,Frisco Wakeland,67.09,158.76,83.91,149.69,392.36,Single-ply,SBD,M
Boys,67.13,4,Danny Maroquin,Frisco Liberty,66.32,138.35,92.99,138.35,369.68,Single-ply,SBD,M
Boys,67.13,5,Ryan Doty,Prosper,66,136.08,74.84,149.69,360.61,Single-ply,SBD,M
Boys,67.13,6,Marco Marcano,Frisco Heritage,67.04,136.08,68.04,145.15,349.27,Single-ply,SBD,M
Boys,67.13,7,Ty Martin #1,Frisco Reedy,66.41,136.08,81.65,129.27,347,Single-ply,SBD,M
Boys,67.13,8,Angel Prado,Frisco Centennial,66.09,142.88,65.77,124.74,333.39,Single-ply,SBD,M
Boys,67.13,9,Gabe Hodges,Frisco Lone Star,64.27,115.67,70.31,131.54,317.51,Single-ply,SBD,M
Boys,67.13,10,Dante Ewell,Frisco Lone Star,,115.67,70.31,127.01,312.98,Single-ply,SBD,M
Boys,67.13,11,Evan Shatto,Frisco Heritage,65.23,99.79,74.84,136.08,310.71,Single-ply,SBD,M
Boys,67.13,12,Colin Wilbourn,Frisco Heritage,65.73,92.99,70.31,117.93,281.23,Single-ply,SBD,M
Boys,67.13,13,Sam Munir,Frisco,61.1,102.06,61.23,111.13,274.42,Single-ply,SBD,M
Boys,67.13,DQ,Lucas Romero,Frisco Reedy,66.32,133.81,79.38,,,Single-ply,SBD,M
Boys,74.84,1,George Kennard,Frisco Wakeland,74.16,226.8,140.61,199.58,566.99,Single-ply,SBD,M
Boys,74.84,2,Christian Lee,Frisco Heritage,73.66,170.1,124.74,170.1,464.93,Single-ply,SBD,M
Boys,74.84,3,Dillon Mironti,Frisco Liberty,69.67,154.22,120.2,174.63,449.06,Single-ply,SBD,M
Boys,74.84,4,Quention Benedict,Prosper,74.07,170.1,90.72,170.1,430.91,Single-ply,SBD,M
Boys,74.84,5,Aiden Kilbane,Frisco Lone Star,73.89,154.22,102.06,165.56,421.84,Single-ply,SBD,M
Boys,74.84,6,Steven Sacarello,Frisco Centennial,74.03,149.69,83.91,179.17,412.77,Single-ply,SBD,M
Boys,74.84,7,Bryson Jenkins,Frisco Centennial,74.8,129.27,97.52,158.76,385.55,Single-ply,SBD,M
Boys,74.84,8,Caden Cooper,Prosper,70.08,136.08,81.65,129.27,347,Single-ply,SBD,M
Boys,74.84,9,Ethan Tackitt,Frisco Heritage,71.62,106.59,72.57,138.35,317.51,Single-ply,SBD,M
Boys,74.84,DQ,Trevor Heavner,Frisco Reedy,70.58,158.76,,,,Single-ply,SBD,M
Boys,74.84,DQ,Justin Gipson,Frisco Reedy,72.76,183.7,,,,Single-ply,SBD,M
Boys,82.1,1,Ryan Lara,Frisco Independence,81.01,190.51,113.4,192.78,496.68,Single-ply,SBD,M
Boys,82.1,2,Isaac Williams,Frisco Centennial,81.96,204.12,108.86,181.44,494.42,Single-ply,SBD,M
Boys,82.1,3,Vance Hooper,Frisco Heritage,82.1,183.7,111.13,192.78,487.61,Single-ply,SBD,M
Boys,82.1,4,Mathew Rechsteiner,Frisco Heritage,79.47,172.37,102.06,190.51,464.93,Single-ply,SBD,M
Boys,82.1,5,Ryan Newell,Frisco Centennial,80.74,167.83,108.86,183.7,460.4,Single-ply,SBD,M
Boys,82.1,6,Hunter Smith #2,Frisco Wakeland,78.2,183.7,102.06,172.37,458.13,Single-ply,SBD,M
Boys,82.1,7,Kyle Johnson #3,Frisco,80.6,158.76,113.4,181.44,453.59,Single-ply,SBD,M
Boys,82.1,8,Dimitri Jones,Frisco Liberty,76.66,183.7,102.06,154.22,439.98,Single-ply,SBD,M
Boys,82.1,9,Andrew Mills,McKinney,78.83,149.69,90.72,181.44,421.84,Single-ply,SBD,M
Boys,82.1,10,Devin Wyatt,Frisco,77.88,154.22,95.25,158.76,408.23,Single-ply,SBD,M
Boys,82.1,11,Jaden Ramey,McKinney Boyd,80.92,127.01,111.13,167.83,405.97,Single-ply,SBD,M
Boys,82.1,12,Jarred Brown,Frisco Heritage,77.7,136.08,74.84,149.69,360.61,Single-ply,SBD,M
Boys,89.81,1,Jared Morris,McKinney North,89.27,192.78,113.4,233.6,539.77,Single-ply,SBD,M
Boys,89.81,2,Chris Ponder,McKinney,88.72,188.24,127.01,222.26,537.51,Single-ply,SBD,M
Boys,89.81,3,Taylor Heyen,Frisco Centennial,89.54,204.12,111.13,208.65,523.9,Single-ply,SBD,M
Boys,89.81,4,Brandon Williams #2,Frisco Independence,85.37,179.17,106.59,199.58,485.34,Single-ply,SBD,M
Boys,89.81,5,Jadon Eggen,Frisco Liberty,86.05,158.76,102.06,149.69,410.5,Single-ply,SBD,M
Boys,89.81,6,Cade Wynn,Frisco Liberty,86.91,147.42,104.33,158.76,410.5,Single-ply,SBD,M
Boys,89.81,7,Angel Okolie,McKinney,84.19,158.76,99.79,145.15,403.7,Single-ply,SBD,M
Boys,89.81,8,Eric Hawkins,Frisco Lone Star,86.05,127.01,88.45,161.03,376.48,Single-ply,SBD,M
Boys,89.81,DQ,Laurence Lewis,Frisco Reedy,88,142.88,,,,Single-ply,SBD,M
Boys,89.81,DQ,Brandon Cambre,Frisco Independence,87.77,161.03,,,,Single-ply,SBD,M
Boys,89.81,DQ,Larry Green,Prosper,87.77,136.08,,,,Single-ply,SBD,M
Boys,99.79,1,Sullivan MacLean,Frisco Centennial,93.67,204.12,122.47,213.19,539.77,Single-ply,SBD,M
Boys,99.79,2,Zach Barenberg,McKinney Boyd,99.02,197.31,133.81,208.65,539.77,Single-ply,SBD,M
Boys,99.79,3,Rafay Usman,Frisco Liberty,94.76,179.17,127.01,215.46,521.63,Single-ply,SBD,M
Boys,99.79,4,Matt Hawk,Frisco Independence,99.06,190.51,127.01,204.12,521.63,Single-ply,SBD,M
Boys,99.79,5,Sam Guzman,McKinney Boyd,94.76,185.97,108.86,183.7,478.54,Single-ply,SBD,M
Boys,99.79,6,Collin Moore,Frisco Centennial,99.74,183.7,120.2,158.76,462.66,Single-ply,SBD,M
Boys,99.79,7,Vincent Ton,Frisco,95.03,156.49,111.13,174.63,442.25,Single-ply,SBD,M
Boys,99.79,8,Seye Akinwale,Frisco Heritage,97.84,145.15,111.13,181.44,437.72,Single-ply,SBD,M
Boys,99.79,9,Logan Steitle,Frisco,99.2,151.95,111.13,174.63,437.72,Single-ply,SBD,M
Boys,99.79,10,Gage Mullis,Frisco Wakeland,90.4,174.63,99.79,158.76,433.18,Single-ply,SBD,M
Boys,99.79,11,JD Craft,McKinney North,94.89,158.76,83.91,181.44,424.11,Single-ply,SBD,M
Boys,99.79,12,Reed Rupprecht,Frisco Centennial,91.4,142.88,99.79,158.76,401.43,Single-ply,SBD,M
Boys,99.79,13,Ray Onyango,Frisco Lone Star,91.44,142.88,97.52,161.03,401.43,Single-ply,SBD,M
Boys,99.79,14,Trevon Gray,Frisco Lone Star,94.35,142.88,97.52,158.76,399.16,Single-ply,SBD,M
Boys,99.79,15,Jordan Holloway,Frisco Heritage,91.76,136.08,106.59,149.69,392.36,Single-ply,SBD,M
Boys,99.79,16,Ben Meriam,Frisco,91.04,124.74,88.45,136.08,349.27,Single-ply,SBD,M
Boys,99.79,DQ,Hunter Hampton,Frisco Centennial,96.07,142.88,,,,Single-ply,SBD,M
Boys,99.79,DQ,Jeff Hemmenway,Frisco Reedy,96.93,188.24,,,,Single-ply,SBD,M
Boys,99.79,DQ,Ryan Anderson,Frisco Reedy,94.3,147.42,,,,Single-ply,SBD,M
Boys,99.79,DQ,Cesar Sandoval,Frisco Reedy,96.98,,,,,Single-ply,SBD,M
Boys,109.77,1,Preston Pfeifer,Prosper,104.14,204.12,149.69,195.04,548.85,Single-ply,SBD,M
Boys,109.77,2,Tyler Ballard,Frisco Liberty,106.55,210.92,124.74,199.58,535.24,Single-ply,SBD,M
Boys,109.77,3,Travis Dafft,Prosper,106.19,192.78,124.74,197.31,514.83,Single-ply,SBD,M
Boys,109.77,4,Noah Schwarz,Frisco Wakeland,108.27,163.29,120.2,181.44,464.93,Single-ply,SBD,M
Boys,109.77,5,Tom McGowan,McKinney,102.56,167.83,104.33,145.15,417.3,Single-ply,SBD,M
Boys,109.77,6,Cody Ragsdale,Frisco Centennial,107.09,138.35,97.52,167.83,403.7,Single-ply,SBD,M
Boys,109.77,DQ,Dreylan Washington,Frisco,103.33,,,,,Single-ply,SBD,M
Boys,124.74,1,Chris Garcia,Prosper,122.38,247.21,183.7,242.67,673.58,Single-ply,SBD,M
Boys,124.74,2,Drew Grisham,McKinney North,118.66,226.8,136.08,208.65,571.53,Single-ply,SBD,M
Boys,124.74,3,Markus Ramsey,McKinney,110.77,226.8,113.4,226.8,566.99,Single-ply,SBD,M
Boys,124.74,4,Constantino Zuniga,McKinney North,120.2,208.65,102.06,215.46,526.17,Single-ply,SBD,M
Boys,124.74,5,Beau Blanton,Frisco Wakeland,120.29,197.31,147.42,181.44,526.17,Single-ply,SBD,M
Boys,124.74,6,Zach Saldana,Frisco Independence,116.66,215.46,124.74,183.7,523.9,Single-ply,SBD,M
Boys,124.74,7,Kurbell Taddesse,McKinney,111.9,197.31,108.86,215.46,521.63,Single-ply,SBD,M
Boys,124.74,8,Zain Zia,Frisco Centennial,121.65,170.1,122.47,192.78,485.34,Single-ply,SBD,M
Boys,124.74,9,Jake Waszkowski,McKinney Boyd,116.94,154.22,151.95,170.1,476.27,Single-ply,SBD,M
Boys,124.74,10,Izeya Floyd,Frisco Reedy,120.07,167.83,113.4,188.24,469.47,Single-ply,SBD,M
Boys,124.74,11,Tucker Rowland,Frisco Heritage,121.65,131.54,145.15,142.88,419.57,Single-ply,SBD,M
Boys,,NS,Ben Buchanan,Frisco Independence,,,,,,Single-ply,SBD,M
Boys,124.74+,1,Zach Thomas,McKinney North,134.04,258.55,142.88,256.28,657.71,Single-ply,SBD,M
Boys,124.74+,2,Alec Jamar,Frisco Liberty,136.08,247.21,165.56,244.94,657.71,Single-ply,SBD,M
Boys,124.74+,3,Perry Radway,McKinney North,135.17,217.72,147.42,226.8,591.94,Single-ply,SBD,M
Boys,124.74+,4,Patrick Quintana,McKinney Boyd,138.16,226.8,140.61,195.04,562.45,Single-ply,SBD,M
Boys,124.74+,5,Felix Ramirez,Frisco Wakeland,128.23,226.8,129.27,199.58,555.65,Single-ply,SBD,M
Boys,124.74+,6,Tanner Leser,Frisco Lone Star,142.02,197.31,129.27,190.51,517.1,Single-ply,SBD,M
Boys,124.74+,7,Cooper Gschwend,Frisco Independence,125.01,158.76,102.06,181.44,442.25,Single-ply,SBD,M
Boys,124.74+,8,Justin Stewart,McKinney Boyd,125.55,174.63,108.86,142.88,426.38,Single-ply,SBD,M
Boys,124.74+,DQ,Austin Stein,McKinney Boyd,131.54,176.9,165.56,,,Single-ply,SBD,M
Boys,124.74+,DQ,Deonerey Fortman,McKinney,163.97,190.51,,,,Single-ply,SBD,M
