Place,Name,CyrillicName,BirthYear,WeightClassKg,BodyweightKg,Best3SquatKg,Best3BenchKg,Best3DeadliftKg,TotalKg,Sex,Division,Event,Equipment
1,Aygul Redzhepova,Айгуль Реджепова,1989,48,47.6,147.5,80,135,362.5,F,Open,SBD,Single-ply
2,Marina Nikiforova,Марина Никифорова,1983,48,47.55,157.5,75,125,357.5,F,Open,SBD,Single-ply
3,Anna Sheina,Анна Шеина,1988,48,47.15,127.5,57.5,130,315,F,Open,SBD,Single-ply
4,Elena Korepanova,Елена Корепанова,1988,48,47.95,120,70,125,315,F,Open,SBD,Single-ply
5,Anastasiya Zaytseva,Анастасия Зайцева,1984,48,48,117.5,57.5,127.5,302.5,F,Open,SBD,Single-ply
6,Ekaterina Aymakova,Екатерина Аймакова,1986,48,47.5,127.5,65,107.5,300,F,Open,SBD,Single-ply
1,Natalia Salnikova,Наталья Сальникова,1986,52,50.25,170,107.5,167.5,445,F,Open,SBD,Single-ply
2,Evgeniya Savitskaya,Евгения Савицкая,1983,52,51.65,142.5,80,150,372.5,F,Open,SBD,Single-ply
3,Lyubov Ivanova,Любовь Иванова,1986,52,50.45,135,65,130,330,F,Open,SBD,Single-ply
4,Valentina Khmelnikova,Валентина Хмельникова,1983,52,51.8,115,57.5,125,297.5,F,Open,SBD,Single-ply
DQ,Natalya Metelyova,Наталья Метелёва,1973,52,51.25,137.5,,,,F,Open,SBD,Single-ply
DQ,Nailya Bakhtieva,Наиля Бахтиева,1992,52,52,,,,,F,Open,SBD,Single-ply
1,Larisa Kotkova,Лариса Коткова,1974,56,55.25,170,140,170,480,F,Open,SBD,Single-ply
2,Ekaterina Nikolaeva,Екатерина Николаева,1984,56,55.85,165,95,150,410,F,Open,SBD,Single-ply
3,Aygul Evseeva,Айгуль Евсеева,1987,56,52.15,125,70,135,330,F,Open,SBD,Single-ply
1,Anastasia Petrova,Анастасия Петрова,1985,60,59.4,172.5,130,180,482.5,F,Open,SBD,Single-ply
1,Viktoriya Nechaeva,Виктория Нечаева,1983,67.5,66.3,200,115,172.5,487.5,F,Open,SBD,Single-ply
1,Svetlana Sharifullina,Светлана Шарифуллина,1979,75,67.6,177.5,120,177.5,475,F,Open,SBD,Single-ply
2,Ellina Kudryavtseva,Эллина Кудрявцева,1975,75,73.5,170,100,140,410,F,Open,SBD,Single-ply
1,Anna Knyazeva,Анна Князева,1987,82.5,81.35,155,67.5,130,352.5,F,Open,SBD,Single-ply
1,Irina Grishanova,Ирина Гришанова,1984,90,88,195,120,160,475,F,Open,SBD,Single-ply
1,Irina Yaroshenko,Ирина Ярошенко,1986,90+,96.35,250,132.5,227.5,610,F,Open,SBD,Single-ply
1,Liliya Valeeva,Лилия Валеева,1993,52,50.7,60,35,80,175,F,Open,SBD,Raw
1,Albina Mukminova,Альбина Мукминова,1991,60,58.2,90,65,100,255,F,Open,SBD,Raw
1,Anastasiya Goch,Анастасия Гоч,1987,67.5,64.4,95,70,120,285,F,Open,SBD,Raw
1,Vladimir Druzhinin,Владимир Дружинин,1985,56,55.35,212.5,147.5,185,545,M,Open,SBD,Single-ply
2,Sergey Trifonov,Сергей Трифонов,1990,56,55.95,190,120,207.5,517.5,M,Open,SBD,Single-ply
3,Seymur Gasanov,Сеймур Гасанов,1990,56,55.9,187.5,122.5,205,515,M,Open,SBD,Single-ply
4,Dmitriy Kolobov,Дмитрий Колобов,1988,56,55.25,155,97.5,172.5,425,M,Open,SBD,Single-ply
DQ,Anatoliy Afanasev,Анатолий Афанасьев,1989,56,55.9,,,,,M,Open,SBD,Single-ply
1,Aleksandr Lyubimov,Александр Любимов,1985,60,59.75,230,130,210,570,M,Open,SBD,Single-ply
2,Mikhail Gladyshev,Михаил Гладышев,1989,60,59.7,205,125,235,565,M,Open,SBD,Single-ply
3,Egor Lukin,Егор Лукин,1990,60,59.8,190,112.5,210,512.5,M,Open,SBD,Single-ply
4,Evgeniy Adnakulov,Евгений Аднакулов,1989,60,59.55,175,105,185,465,M,Open,SBD,Single-ply
DQ,Dmitriy Lapin,Дмитрий Лапин,1989,60,58.75,,,,,M,Open,SBD,Single-ply
DQ,Nikolay Isaev,Николай Исаев,1991,60,59.95,,,,,M,Open,SBD,Single-ply
1,Fidan Abdullin,Фидан Абдуллин,1986,67.5,67.5,260,165,242.5,667.5,M,Open,SBD,Single-ply
2,Igor Dolzhenko,Ігор Долженко,1988,67.5,67.35,260,170,230,660,M,Open,SBD,Single-ply
3,Maksim Lavrenyuk,Максим Лавренюк,1988,67.5,67.45,260,130,245,635,M,Open,SBD,Single-ply
4,Igor Baluev,Игорь Балуев,1987,67.5,67.3,220,130,215,565,M,Open,SBD,Single-ply
1,Maxim Sharikov,Максим Шариков,1988,75,74.4,347.5,227.5,275,850,M,Open,SBD,Single-ply
2,Sergey Serov,Сергей Серов,1981,75,74.15,267.5,165,292.5,725,M,Open,SBD,Single-ply
3,Aleksandr Tryastsin,Александр Трясцин,1983,75,74.3,270,175,255,700,M,Open,SBD,Single-ply
4,Alik Khuramshin,Алик Хурамшин,1990,75,74.4,275,150,267.5,692.5,M,Open,SBD,Single-ply
5,Aleksey Batanov,Алексей Батанов,1988,75,72.45,250,170,220,640,M,Open,SBD,Single-ply
6,Andrey Yatsenko,Андрей Яценко,1977,75,74.5,230,180,230,640,M,Open,SBD,Single-ply
7,Sergey Chuklinov,Сергей Чуклинов,1988,75,74.3,220,130,230,580,M,Open,SBD,Single-ply
1,Artur Dautov,Артур Даутов,1985,82.5,80.75,310,200,270,780,M,Open,SBD,Single-ply
2,Sergey Golovanov,Сергей Голованов,1983,82.5,81,290,207.5,262.5,760,M,Open,SBD,Single-ply
3,Anton Rybakov,Антон Рыбаков,1988,82.5,81.45,280,165,285,730,M,Open,SBD,Single-ply
4,Konstantin Ermolaev,Константин Ермолаев,1984,82.5,81.55,275,185,245,705,M,Open,SBD,Single-ply
5,Georgiy Lambrianidis,Георгий Ламбрианидис,1992,82.5,81.9,270,157.5,260,687.5,M,Open,SBD,Single-ply
6,Sergey Shulepov,Сергей Шулепов,1987,82.5,82,240,160,260,660,M,Open,SBD,Single-ply
7,Sergey Stolyarov,Сергей Столяров,1986,82.5,82.2,240,160,220,620,M,Open,SBD,Single-ply
DQ,Andrey Vozovikov,Андрей Возовиков,1984,82.5,81.15,250,,,,M,Open,SBD,Single-ply
1,Ruslan Zhadukov,Руслан Жадуков,1983,90,86.55,325,235,325,885,M,Open,SBD,Single-ply
2,Aleksandr Babin,Александр Бабин,1982,90,88.85,325,235,325,885,M,Open,SBD,Single-ply
3,Artyom Zaytsev #1,Артём Зайцев,1985,90,86,335,192.5,305,832.5,M,Open,SBD,Single-ply
4,Anton Poptsov,Антон Попцов,1982,90,86.1,325,195,285,805,M,Open,SBD,Single-ply
5,Aleksey Demakov,Алексей Демаков,1988,90,89.25,310,170,290,770,M,Open,SBD,Single-ply
6,Ruslan Minibaev,Руслан Минибаев,1985,90,89,290,170,300,760,M,Open,SBD,Single-ply
7,Aleksey Pleshakov,Алексей Плешаков,1994,90,89.9,280,195,275,750,M,Open,SBD,Single-ply
8,Aleksandr Vasilkov,Александр Васильков,1988,90,84.7,252.5,190,287.5,730,M,Open,SBD,Single-ply
1,Dmitriy Popov,Дмитрий Попов,1987,100,98.9,385,245,315,945,M,Open,SBD,Single-ply
2,Sergey Shpota,Сергей Шпота,1982,100,98.35,320,230,285,835,M,Open,SBD,Single-ply
3,Aleksey Serov,Алексей Серов,1985,100,100,325,185,315,825,M,Open,SBD,Single-ply
4,Vadim Usanov,Вадим Усанов,1977,100,98.5,300,190,325,815,M,Open,SBD,Single-ply
5,Oleg Ivashkin,Олег Ивашкин,1971,100,99.75,305,225,280,810,M,Open,SBD,Single-ply
6,Anton Karban,Антон Карбан,1979,100,97.6,315,190,295,800,M,Open,SBD,Single-ply
7,Aleksandr Muratkin,Александр Мураткин,1985,100,98.25,295,195,310,800,M,Open,SBD,Single-ply
8,Vladislav Shvabauer,Владислав Швабауэр,1958,100,99,305,205,280,790,M,Open,SBD,Single-ply
9,Yuriy Kovalenko,Юрій Коваленко,1977,100,98.6,320,185,280,785,M,Open,SBD,Single-ply
10,Ruslan Rezenov,Руслан Резенов,1988,100,97.1,310,185,280,775,M,Open,SBD,Single-ply
11,Eduard Zanchurin,Эдуард Занчурин,1976,100,92.6,265,200,270,735,M,Open,SBD,Single-ply
12,Vladimir Konopatskiy,Владимир Конопацкий,1973,100,96.75,270,220,240,730,M,Open,SBD,Single-ply
13,Vasiliy Kandaurov,Василий Кандауров,1966,100,98.9,290,190,250,730,M,Open,SBD,Single-ply
DQ,Dmitriy Balabanov,Дмитрий Балабанов,1981,100,96.95,280,200,,,M,Open,SBD,Single-ply
DQ,Egor Karpanov,Егор Карпанов,1982,100,99.95,,,,,M,Open,SBD,Single-ply
DQ,Denis Maksin,Денис Максин,1992,100,93,,,,,M,Open,SBD,Single-ply
1,Vitaliy Balashov,Виталий Балашов,1988,100,99.1,235,160,305,700,M,Open,SBD,Raw
2,Denis Mezin,Денис Мезин,1981,100,95.3,187.5,180,190,557.5,M,Open,SBD,Raw
1,Dmitriy Reshetov,Дмитрий Решетов,1974,110,109.05,330,260,315,905,M,Open,SBD,Single-ply
2,Vladimir Sibalakov,Владимир Сибалаков,1981,110,101.95,330,240,315,885,M,Open,SBD,Single-ply
3,Dmitriy Yashurin,Дмитрий Яшурин,1982,110,108.95,345,205,320,870,M,Open,SBD,Single-ply
4,Mikhail Bagrov,Михаил Багров,1984,110,106.25,315,222.5,312.5,850,M,Open,SBD,Single-ply
5,Kirill Mozheyko,Кирилл Можейко,1983,110,104.1,310,235,300,845,M,Open,SBD,Single-ply
6,Igor Okulov,Игорь Окулов,1967,110,108.3,320,255,255,830,M,Open,SBD,Single-ply
7,Nikolay Kozhevnikov,Николай Кожевников,1970,110,109.05,330,220,280,830,M,Open,SBD,Single-ply
8,Evgeniy Vasin,Евгений Васин,1988,110,107.45,312.5,205,292.5,810,M,Open,SBD,Single-ply
9,Dmitriy Bomonin,Дмитрий Бомонин,1975,110,108.5,312.5,230,267.5,810,M,Open,SBD,Single-ply
10,Albert Mustafin,Альберт Мустафин,1986,110,107.6,315,220,270,805,M,Open,SBD,Single-ply
11,Nikolay Melnikov,Николай Мельников,1986,110,105.95,302.5,192.5,290,785,M,Open,SBD,Single-ply
1,Yuriy Musikhin,Юрий Мусихин,1984,125,123.8,352.5,235,345,932.5,M,Open,SBD,Single-ply
2,Sergey Selezen,Сергей Селезень,1980,125,120.25,325,280,325,930,M,Open,SBD,Single-ply
3,Andrey Skvortsov,Андрей Скворцов,1969,125,116.3,360,255,280,895,M,Open,SBD,Single-ply
4,Andrey Frolov,Андрей Фролов,1977,125,117.7,335,235,300,870,M,Open,SBD,Single-ply
5,Sergey Kurilo,Сергей Курило,1971,125,116.55,322.5,225,302.5,850,M,Open,SBD,Single-ply
6,Albert Makhiyanov,Альберт Махиянов,1986,125,121.3,325,230,280,835,M,Open,SBD,Single-ply
7,Denis Ibragimov,Денис Ибрагимов,1988,125,116.8,315,205,305,825,M,Open,SBD,Single-ply
8,Aleksandr Volkov,Александр Волков,1965,125,117.55,310,225,285,820,M,Open,SBD,Single-ply
9,Sergey Odegov,Сергей Одегов,1976,125,122.8,295,215,310,820,M,Open,SBD,Single-ply
DQ,Andrey Dyatlov,Андрей Дятлов,1978,125,112.5,330,180,,,M,Open,SBD,Single-ply
DQ,Viktor Borisov,Виктор Борисов,1977,125,113.45,,,,,M,Open,SBD,Single-ply
DQ,Mikhail Mochalov,Михаил Мочалов,1974,125,118.45,,,,,M,Open,SBD,Single-ply
1,Dmitriy Ivanov,Дмитрий Иванов,1984,125+,162.7,385,255,372.5,1012.5,M,Open,SBD,Single-ply
2,Timur Gadiev,Тимур Гадиев,1985,125+,135.15,415,270,325,1010,M,Open,SBD,Single-ply
3,Igor Garifullin,Игорь Гарифуллин,1977,125+,134.85,370,195,320,885,M,Open,SBD,Single-ply
4,Igor Filippov,Игорь Филиппов,1989,125+,127.2,350,225,295,870,M,Open,SBD,Single-ply
5,Konstantin Kotilevskiy,Константин Котилевский,1974,125+,138.05,330,220,310,860,M,Open,SBD,Single-ply
6,Aleksandr Abrosimov,Александр Абросимов,1993,125+,130.3,200,115,210,525.5,M,Open,SBD,Single-ply
