Place,Name,CyrillicName,BirthDate,Division,BodyweightKg,WeightClassKg,Sex,Squat1Kg,Squat2Kg,Squat3Kg,Best3SquatKg,Bench1Kg,Bench2Kg,Bench3Kg,Best3BenchKg,Deadlift1Kg,Deadlift2Kg,Deadlift3Kg,Best3DeadliftKg,TotalKg,Event,Equipment,Tested
1,Irina Menovshchikova,Ирина Меновщикова,1981-11-18,Open,58.9,60,F,,,,,50,55,-57.5,55,,,,,55,B,Raw,Yes
2,Mariya Tokareva,Мария Токарева,1986-08-30,Open,56.8,60,F,,,,,52.5,-57.5,-57.5,52.5,,,,,52.5,B,Raw,Yes
1,Lidiya Golubeva,Лидия Голубева,1995-10-13,Juniors 20-23,66.9,67.5,F,,,,,70,75,-77.5,75,,,,,75,B,Raw,Yes
1,Mariya Gnusareva,Мария Гнусарева,1982-06-25,Open,61.1,67.5,F,,,,,92.5,-95,-95,92.5,,,,,92.5,B,Raw,Yes
2,Alina Garipova,Алина Гарипова,1991-05-20,Open,63.8,67.5,F,,,,,72.5,-77.5,-77.5,72.5,,,,,72.5,B,Raw,Yes
1,Evgeniya Lebedeva,Евгения Лебедева,1998-06-11,Juniors 20-23,71.5,75,F,,,,,40,-50,50,50,,,,,50,B,Raw,Yes
1,Andrey Sirotkin,Андрей Сироткин,2000-12-05,Teen 16-17,64.2,67.5,M,,,,,90,-92.5,-92.5,90,,,,,90,B,Raw,Yes
2,Ivan Shushkin,Иван Шушкин,2002-04-19,Teen 16-17,65.1,67.5,M,,,,,80,82.5,-85,82.5,,,,,82.5,B,Raw,Yes
1,Aleksandr Selyaninov,Александр Селянинов,1987-03-16,Open,66.3,67.5,M,,,,,-107.5,107.5,-115,107.5,,,,,107.5,B,Raw,Yes
2,Aleksandr Panov,Александр Панов,1991-05-18,Open,66.4,67.5,M,,,,,100,105,-107.5,105,,,,,105,B,Raw,Yes
1,Evgeniy Pimenov,Евгений Пименов,1996-11-29,Juniors 20-23,74.7,75,M,,,,,145,155,-157.5,155,,,,,155,B,Raw,Yes
1,Ivan Markov,Иван Марков,2003-03-26,Teen 13-15,80.9,82.5,M,,,,,105,-110,-110,105,,,,,105,B,Raw,Yes
1,Maksim Plisov,Максим Плисов,1994-12-06,Juniors 20-23,79.2,82.5,M,,,,,125,135,140,140,,,,,140,B,Raw,Yes
1,Valentin Kasyanenko,Валентин Касьяненко,1997-05-07,Juniors 20-23,87.9,90,M,,,,,145,150,152.5,152.5,,,,,152.5,B,Raw,Yes
1,Aleksey Mannik,Алексей Манник,1986-02-04,Open,89.5,90,M,,,,,145,-150,150,150,,,,,150,B,Raw,Yes
1,Sergey Ilin,Сергей Ильин,1958-06-01,Masters 60-64,89.7,90,M,,,,,130,140,-145,140,,,,,140,B,Raw,Yes
1,Leonid Chernushenko,Леонид Чернушенко,1952-08-22,Masters 65-69,87,90,M,,,,,120,125,-130,125,,,,,125,B,Raw,Yes
1,Vitaliy Lazovskiy,Виталий Лазовский,1996-01-31,Juniors 20-23,96.5,100,M,,,,,-170,175,180,180,,,,,180,B,Raw,Yes
1,Viktor Grechko,Виктор Гречко,1988-08-21,Open,96.8,100,M,,,,,-155,160,162.5,162.5,,,,,162.5,B,Raw,Yes
2,Evgeniy Zavyazkin,Евгений Завязкин,1979-12-15,Open,97.3,100,M,,,,,140,162.5,-185,162.5,,,,,162.5,B,Raw,Yes
3,Aleksandr Bukharin,Александр Бухарин,1986-08-27,Open,98.7,100,M,,,,,-150,150,162.5,162.5,,,,,162.5,B,Raw,Yes
DQ,Aleksey Yamskov,Алексей Ямсков,1984-06-28,Open,100,100,M,,,,,140,-162.5,-162.5,140,,,,,,B,Raw,Yes
1,Oleg Sazonov,Олег Сазонов,1965-01-17,Masters 50-54,94.3,100,M,,,,,130,140,-152.5,140,,,,,140,B,Raw,Yes
1,Stanislav Medvedev,Станислав Медведев,1985-03-17,Open,106.4,110,M,,,,,155,160,167.5,167.5,,,,,167.5,B,Raw,Yes
2,Maksim Kidalov,Максим Кидалов,1974-05-26,Open,109.5,110,M,,,,,135,-150,-155,135,,,,,135,B,Raw,Yes
1,Maksim Kidalov,Максим Кидалов,1974-05-26,Masters 40-44,109.5,110,M,,,,,135,-150,-155,135,,,,,135,B,Raw,Yes
1,Nikita Yanushkin,Никита Янушкин,2002-04-15,Teen 16-17,119.7,125,M,,,,,127.5,-135,135,135,,,,,135,B,Raw,Yes
1,Pavel Dotsenko,Павел Доценко,1984-03-06,Open,137.7,140,M,,,,,220,-230,230,230,,,,,230,B,Raw,Yes
2,Dmitriy Grabovetskiy,Дмитрий Грабовецкий,1982-10-10,Open,133.1,140,M,,,,,170,-182.5,-182.5,170,,,,,170,B,Raw,Yes
1,Vitaliy Krasnoyarov,Виталий Краснояров,1993-11-19,Open,80.2,82.5,M,,,,,240,260,-272.5,260,,,,,260,B,Unlimited,No
1,Sergey Zamaliev,Сергей Замалиев,1977-11-15,Open,86.4,90,M,,,,,295,305,,305,,,,,305,B,Unlimited,No
1,Sergey Zamaliev,Сергей Замалиев,1977-11-15,Masters 40-44,86.4,90,M,,,,,295,305,,305,,,,,305,B,Unlimited,No
1,Sergey Zamaliev,Сергей Замалиев,1977-11-15,Open,86.4,90,M,,,,,-322.5,325,-335,325,,,,,325,B,Unlimited,No
1,Sergey Zamaliev,Сергей Замалиев,1977-11-15,Masters 40-44,86.4,90,M,,,,,-322.5,325,-335,325,,,,,325,B,Unlimited,No
1,Yana Osaulenko,Яна Осауленко,1995-02-13,Juniors 20-23,47.4,48,F,67.5,72.5,75,75,-37.5,37.5,40,40,82.5,87.5,-95,87.5,202.5,SBD,Wraps,Yes
1,Andrey Matsukevich,Андрей Мацукевич,1992-11-20,Open,73.6,75,M,170,-185,190,190,100,112.5,-120,112.5,170,185,200,200,502.5,SBD,Wraps,Yes
2,Oleg Ryabchuk,Олег Рябчук,1987-07-29,Open,74.8,75,M,140,-155,-155,140,100,-115,-115,100,180,190,200,200,440,SBD,Wraps,Yes
1,Aleksandr Akberov,Александр Акберов,1999-10-06,Teen 18-19,81.3,82.5,M,190,-207.5,207.5,207.5,107.5,115,-120,115,217.5,-230,,217.5,540,SBD,Wraps,Yes
1,Egor Krivorotov,Егор Криворотов,1997-04-14,Juniors 20-23,80.2,82.5,M,170,190,-205,190,125,135,-137.5,135,210,-230,-240,210,535,SBD,Wraps,Yes
1,Vsevolod Panfilov,Всеволод Панфилов,1997-05-05,Juniors 20-23,89.9,90,M,180,200,-230,200,165,175,180,180,220,240,270,270,650,SBD,Wraps,Yes
1,Valeriy Borodin,Валерий Бородин,2001-06-07,Teen 16-17,98.5,100,M,170,185,-195,185,105,110,115,115,180,190,200,200,500,SBD,Wraps,Yes
1,Aleksandr Miller,Александр Миллер,1992-03-30,Open,124.3,125,M,-260,-260,260,260,175,180,-185,180,-260,265,,265,705,SBD,Wraps,Yes
2,Igor Ponomarenko,Игорь Пономаренко,1986-03-08,Open,116.1,125,M,250,-260,260,260,150,160,-170,160,230,-240,-240,230,650,SBD,Wraps,Yes
3,Mikhail Daragan,Михаил Дараган,1986-12-24,Open,119.9,125,M,-220,-220,220,220,150,-160,-160,150,230,245,260,260,630,SBD,Wraps,Yes
1,Irina Buldakova,Ирина Булдакова,1989-11-15,Open,43.9,44,F,,,,,,,,,90,95,100,100,100,D,Raw,Yes
1,Irina Prokhorova,Ирина Прохорова,1987-10-11,Open,55.7,56,F,,,,,,,,,110,122.5,130,130,130,D,Raw,Yes
2,Olga Zhukova,Ольга Жукова,1992-01-28,Open,55.9,56,F,,,,,,,,,70,80,-85,80,80,D,Raw,Yes
1,Nadezhda Bokeriya,Надежда Бокерия,1994-11-29,Juniors 20-23,59.9,60,F,,,,,,,,,110,-130,-130,110,110,D,Raw,Yes
1,Valeriya Konoplya,Валерия Конопля,1983-04-19,Open,67.2,67.5,F,,,,,,,,,-130,130,140,140,140,D,Raw,Yes
1,Oksana Markova,Оксана Маркова,1975-03-21,Masters 40-44,60.4,67.5,F,,,,,,,,,120,130,135,135,135,D,Raw,Yes
1,Amir Mamatulin,Амир Маматулин,1998-09-16,Juniors 20-23,66.4,67.5,M,,,,,,,,,145,165,170,170,170,D,Raw,Yes
1,Aleksandr Chumlyakov,Александр Чумляков,1992-11-20,Open,65.7,67.5,M,,,,,,,,,130,140,145,145,145,D,Raw,Yes
1,Pavel Belkin,Павел Белкин,1997-01-14,Juniors 20-23,75,75,M,,,,,,,,,160,170,-177.5,170,170,D,Raw,Yes
1,Aleksandr Akberov,Александр Акберов,1999-10-06,Teen 18-19,81.3,82.5,M,,,,,,,,,217.5,-230,,217.5,217.5,D,Raw,Yes
2,Sergey Kapanin,Сергей Капанин,1999-01-28,Teen 18-19,79.8,82.5,M,,,,,,,,,170,180,185,185,185,D,Raw,Yes
1,Maksim Plisov,Максим Плисов,1994-12-06,Juniors 20-23,79.2,82.5,M,,,,,,,,,200,215,-225,215,215,D,Raw,Yes
1,Maksim Plisov,Максим Плисов,1994-12-06,Open,79.2,82.5,M,,,,,,,,,200,215,-225,215,215,D,Raw,Yes
1,Svyatoslav Plotnikov,Святослав Плотников,1998-02-17,Juniors 20-23,89.9,90,M,,,,,,,,,-220,220,-250,220,220,D,Raw,Yes
1,Konstantin Novikov,Константин Новиков,1980-10-07,Open,84.6,90,M,,,,,,,,,-205,205,,205,205,D,Raw,Yes
1,Vadim Kovalev,Вадим Ковалев,1999-02-25,Teen 18-19,97.6,100,M,,,,,,,,,172.5,185,202.5,202.5,202.5,D,Raw,Yes
1,Ilya Strizhov,Илья Стрижов,1998-11-22,Juniors 20-23,97.6,100,M,,,,,,,,,210,225,-232.5,225,225,D,Raw,Yes
1,Dmitriy Opredelenov,Дмитрий Определенов,1994-04-04,Open,95.6,100,M,,,,,,,,,230,245,255,255,255,D,Raw,Yes
2,Igor Savin #5,Игорь Савин,1987-01-28,Open,96.8,100,M,,,,,,,,,220,232.5,240,240,240,D,Raw,Yes
3,Ilya Larin,Илья Ларин,1980-04-20,Open,98.3,100,M,,,,,,,,,225,-232.5,232.5,232.5,232.5,D,Raw,Yes
1,Yuriy Kolmakov,Юрий Колмаков,1983-05-06,Open,119.3,125,M,,,,,,,,,280,300,312.5,312.5,312.5,D,Raw,Yes
1,Lidiya Fefelova,Лидия Фефелова,1979-01-23,Open,59.8,60,F,,,,,55,57.5,-60,57.5,,,,,57.5,B,Raw,No
1,Vladislav Gutov,Владислав Гутов,1982-08-11,Open,67.4,67.5,M,,,,,125,135,-147.5,135,,,,,135,B,Raw,No
1,Andrey Mozzherin,Андрей Мозжерин,1990-08-15,Open,74.6,75,M,,,,,145,-152.5,-152.5,145,,,,,145,B,Raw,No
1,Vitaliy Krasnoyarov,Виталий Краснояров,1993-11-19,Open,80.2,82.5,M,,,,,150,162.5,-170,162.5,,,,,162.5,B,Raw,No
2,Evgeniy Gulyako,Евгений Гуляко,1994-08-13,Open,79.8,82.5,M,,,,,160,-165,-165,160,,,,,160,B,Raw,No
3,Egor Bogomolov,Егор Богомолов,1992-01-02,Open,80.1,82.5,M,,,,,140,-145,-145,140,,,,,140,B,Raw,No
1,Sergey Zamaliev,Сергей Замалиев,1977-11-15,Masters 40-44,86.4,90,M,,,,,195,-202.5,,195,,,,,195,B,Raw,No
1,Sergey Kinas,Сергей Кинас,1994-01-20,Open,97.5,100,M,,,,,165,177.5,190,190,,,,,190,B,Raw,No
1,Aleksandr Tsindik,Александр Циндик,1950-08-05,Masters 65-69,92.6,100,M,,,,,110,117.5,-122.5,117.5,,,,,117.5,B,Raw,No
1,Evgeniy Ilin,Евгений Ильин,1986-09-01,Open,109.9,110,M,,,,,225,-230,-230,225,,,,,225,B,Raw,No
1,Aleksey Mishanin,Алексей Мишанин,1975-08-22,Masters 40-44,107.4,110,M,,,,,195,202.5,207.5,207.5,,,,,207.5,B,Raw,No
2,Tleuzhan Kunikin,Тлеужан Куникин,1975-06-10,Masters 40-44,100.7,110,M,,,,,-160,170,175,175,,,,,175,B,Raw,No
1,Yuriy Redkin,Юрий Редькин,1963-11-07,Masters 55-59,107.7,110,M,,,,,135,-140,,135,,,,,135,B,Raw,No
1,Aleksey Ryazanov,Алексей Рязанов,1984-08-30,Open,112.1,125,M,,,,,180,-190,190,190,,,,,190,B,Raw,No
2,Maksim Zhukov,Максим Жуков,1988-01-25,Open,117,125,M,,,,,170,180,-190,180,,,,,180,B,Raw,No
1,Vadim Teterev,Вадим Тетерев,1972-11-10,Masters 45-49,145.4,140+,M,,,,,220,-230,,220,,,,,220,B,Raw,No
1,Evgeniy Gulyayko,Евгений Гуляйко,1975-07-17,Open,74.7,75,M,,,,,212.5,220,-230,220,,,,,220,B,Unlimited,Yes
1,Evgeniy Gulyayko,Евгений Гуляйко,1975-07-17,Masters 40-44,74.7,75,M,,,,,212.5,220,-230,220,,,,,220,B,Unlimited,Yes
1,Aleksandr Selyaninov,Александр Селянинов,1987-03-16,Open,66.3,67.5,M,,,,,-130,-130,130,130,,,,,130,B,Unlimited,Yes
1,Konstantin Kolotilin,Константин Колотилин,1994-06-13,Open,67.3,67.5,M,,,,,,,,,175,190,-200,190,190,D,Raw,No
1,Almaz Tanmurzinov,Алмаз Танмурзинов,1999-08-05,Teen 18-19,79.8,82.5,M,,,,,,,,,130,145,155,155,155,D,Raw,No
1,Sergey Gerner,Сергей Гернер,1994-11-02,Open,79.7,82.5,M,,,,,,,,,190,205,210,210,210,D,Raw,No
2,Aleksey Tomskiy,Алексей Томский,1985-04-09,Open,81.3,82.5,M,,,,,,,,,165,185,-207.5,185,185,D,Raw,No
3,Almaz Tanmurzinov,Алмаз Танмурзинов,1999-08-05,Open,79.8,82.5,M,,,,,,,,,130,145,155,155,155,D,Raw,No
1,Ilya Ermakov,Илья Ермаков,2000-11-17,Teen 18-19,87.6,90,M,,,,,,,,,80,190,-195,190,190,D,Raw,No
1,Artem Nasyrov,Артем Насыров,1997-10-15,Juniors 20-23,87.9,90,M,,,,,,,,,190,205,-210,205,205,D,Raw,No
2,Stanislav Mintsev,Станислав Минцев,1997-12-02,Juniors 20-23,89.3,90,M,,,,,,,,,175,185,190,190,190,D,Raw,No
1,Sergey Kinas,Сергей Кинас,1994-01-20,Open,97.5,100,M,,,,,,,,,302.5,317.5,330,330,330,D,Raw,No
1,Aleksandr Tsindik,Александр Циндик,1950-08-05,Masters 65-69,92.6,100,M,,,,,,,,,-160,160,175,175,175,D,Raw,No
1,Vitaliy Rubtsov,Виталий Рубцов,1979-04-01,Open,100.5,110,M,,,,,,,,,260,280,290,290,290,D,Raw,No
1,Evgeniya Rogova,Евгения Рогова,1993-05-20,Open,56.5,60,F,70,75,-80,75,37.5,-40,-40,37.5,-85,-90,90,90,202.5,SBD,Wraps,No
1,Roman Kulyapin,Роман Куляпин,1996-08-06,Juniors 20-23,81.8,82.5,M,-185,-185,185,185,130,140,-150,140,220,230,-245,230,555,SBD,Wraps,No
1,Ruslan Ishmukhametov,Руслан Ишмухаметов,1976-03-19,Open,81.6,82.5,M,-200,205,215,215,125,135,-140,135,-220,230,-250,230,580,SBD,Wraps,No
2,Aleksey Tomskiy,Алексей Томский,1985-04-09,Open,81.3,82.5,M,140,155,162.5,162.5,112.5,120,-125,120,100,,,100,382.5,SBD,Wraps,No
1,Ruslan Ishmukhametov,Руслан Ишмухаметов,1976-03-19,Masters 40-44,81.6,82.5,M,-200,205,215,215,125,135,-140,135,-220,230,-250,230,580,SBD,Wraps,No
1,Ilya Ermakov,Илья Ермаков,2000-11-17,Teen 18-19,87.6,90,M,110,120,-130,120,80,-85,-85,80,80,190,-195,190,390,SBD,Wraps,No
1,Sergey Kinas,Сергей Кинас,1994-01-20,Open,97.5,100,M,252.5,262.5,272.5,272.5,165,177.5,190,190,302.5,317.5,330,330,792.5,SBD,Wraps,No
1,Valeriy Vorobev,Валерий Воробьев,1953-11-26,Masters 60-64,97.7,100,M,170,180,,180,145,-150,-150,145,180,190,-200,190,515,SBD,Wraps,No
