Place,Name,CyrillicName,WeightClassKg,Sex,BirthYear,BodyweightKg,Best3SquatKg,Best3BenchKg,Best3DeadliftKg,TotalKg,Event,Equipment,Division
1,Karina Simonyants,Карина Симонянц,48,F,1977,47,122.5,82.5,120,325,SBD,Single-ply,Open
2,Inna Kanareykina,Инна Канарейкина,48,F,1967,47.25,105,42.5,125,272.5,SBD,Single-ply,Open
3,Anna Rakova,Анна Ракова,48,F,1984,47.65,90,35,107.5,232.5,SBD,Single-ply,Open
1,Mariya Golubeva,Мария Голубева,52,F,1982,50.85,142.5,70,130,342.5,SBD,Single-ply,Open
2,Tamara Ochirova,Тамара Очирова,52,F,1975,51.65,127.5,65,125,317.5,SBD,Single-ply,Open
3,Natalya Vinogradova,Наталья Виноградова,52,F,1983,51.8,120,70,125,315,SBD,Single-ply,Open
4,Renata Mustafaeva,Рената Мустафаева,52,F,1979,52,117.5,60,125,302.5,SBD,Single-ply,Open
5,Ekaterina Loseva,Екатерина Лосева,52,F,1976,50.3,100,57.5,115,272.5,SBD,Single-ply,Open
DQ,Marina Konovalova,Марина Коновалова,52,F,1976,51.4,,,,,SBD,Single-ply,Open
DQ,Marina Yudicheva,Марина Юдичева,52,F,1976,51.8,127.5,,,,SBD,Single-ply,Open
1,Yuliya Vavilova,Юлия Вавилова,56,F,1979,52.85,147.5,77.5,152.5,377.5,SBD,Single-ply,Open
2,Viktoriya Barkova,Виктория Баркова,56,F,1975,54.35,130,55,125,310,SBD,Single-ply,Open
3,Ekaterina Parnyuk,Екатерина Парнюк,56,F,1980,56,110,55,135,300,SBD,Single-ply,Open
4,Tatyana Vedernikova,Татьяна Ведерникова,56,F,1989,54.85,95,45,115,255,SBD,Single-ply,Open
DQ,Vera Gladkova,Вера Гладкова,56,F,1990,53.8,,,,,SBD,Single-ply,Open
DQ,Irina Borisova,Ирина Борисова,56,F,1969,54.95,,,,,SBD,Single-ply,Open
1,Marina Lemenovskaya,Марина Леменовская,60,F,1985,58.3,175,97.5,162.5,435,SBD,Single-ply,Open
2,Galina Fedorova,Галина Федорова,60,F,1968,59.8,147.5,70,155,372.5,SBD,Single-ply,Open
3,Natalya Kuzmina #2,Наталья Кузьмина,60,F,1990,58.65,127.5,67.5,122.5,317.5,SBD,Single-ply,Open
1,Nataliya Kraeva,Наталия Краева,67.5,F,1979,66.1,195,97.5,195,487.5,SBD,Single-ply,Open
2,Anna Savina,Анна Савина,67.5,F,1970,66.4,160,80,140,380,SBD,Single-ply,Open
3,Ekaterina Linnikova,Екатерина Линникова,67.5,F,1981,66.05,132.5,77.5,150,360,SBD,Single-ply,Open
4,Ekaterina Gureva,Екатерина Гурьева,67.5,F,1985,66.1,140,70,150,360,SBD,Single-ply,Open
5,Tatyana Ilina,Татьяна Ильина,67.5,F,1979,61.25,132.5,57.5,132.5,322.5,SBD,Single-ply,Open
1,Yuliya Yakovleva,Юлия Яковлева,75,F,1979,74.45,145,95,190,430,SBD,Single-ply,Open
2,Yuliya Guslyankova,Юлия Гуслянкова,75,F,1986,74.05,160,65,155,380,SBD,Single-ply,Open
3,Olga Sazanova,Ольга Сазанова,75,F,1976,73.15,130,52.5,137.5,320,SBD,Single-ply,Open
4,Oksana Khilenko,Оксана Хиленко,75,F,1979,68.2,100,55,130,285,SBD,Single-ply,Open
1,Liudmila Protchenko,Людмила Протченко,82.5,F,1986,82,225,132.5,175,532.5,SBD,Single-ply,Open
1,Tatyana Merezhko,Татьяна Мережко,90,F,1978,88.7,207.5,77.5,172.5,457.5,SBD,Single-ply,Open
DQ,Natalya Konyukova,Наталья Конюкова,90,F,1972,87.95,180,,,,SBD,Single-ply,Open
1,Ryamil Badalov,Рямиль Бадалов,56,M,1985,55.8,150,90,185,425,SBD,Single-ply,Open
1,Roman Aladinskiy,Роман Аладинский,67.5,M,1976,67.2,210,157.5,200,567.5,SBD,Single-ply,Open
2,Sergey Kokurin,Сергей Кокурин,67.5,M,1984,67.5,170,120,215,505,SBD,Single-ply,Open
1,Aleksey Dementev,Алексей Дементьев,75,M,1986,74.5,270,187.5,275,732.5,SBD,Single-ply,Open
2,Mikhail Cherimov,Михаил Черимов,75,M,1978,74.1,260,200,250,710,SBD,Single-ply,Open
3,Mikhail Chistyakov,Михаил Чистяков,75,M,1983,73.9,235,175,235,645,SBD,Single-ply,Open
4,Andrey Gritchenko,Андрей Гритченко,75,M,1983,74.9,255,140,250,645,SBD,Single-ply,Open
5,Aleksandr Potapov,Александр Потапов,75,M,1984,72.95,210,135,250,595,SBD,Single-ply,Open
6,Maksim Lanovoy,Максим Лановой,75,M,1976,74.75,210,135,220,565,SBD,Single-ply,Open
7,Roman Borisov,Роман Борисов,75,M,1966,74.95,195,115,205,515,SBD,Single-ply,Open
8,Andrey Stelmakh,Андрей Стельмах,75,M,1984,70.5,170,105,170,445,SBD,Single-ply,Open
1,Alexey Bakhirev,Алексей Бахирев,82.5,M,1981,78.2,287.5,222.5,290,800,SBD,Single-ply,Open
2,Mikhail Nikolaev,Михаил Николаев,82.5,M,1977,82.5,285,210,282.5,777.5,SBD,Single-ply,Open
3,Viktor Raevskiy,Виктор Раевский,82.5,M,1982,81.8,270,187.5,262.5,720,SBD,Single-ply,Open
4,Aleksandr Skryabin,Александр Скрябин,82.5,M,1987,82.5,262.5,200,237.5,700,SBD,Single-ply,Open
5,Borislav Meshkauskas,Борислав Мешкаускас,82.5,M,1987,81.8,250,170,270,690,SBD,Single-ply,Open
6,Viktor Vasilev,Виктор Васильев,82.5,M,1985,82.5,270,165,250,685,SBD,Single-ply,Open
7,Vyacheslav Medvedev,Вячеслав Медведев,82.5,M,1979,82.45,240,190,230,660,SBD,Single-ply,Open
8,Andrey Kostromtsov,Андрей Костромцов,82.5,M,1982,81.2,270,155,230,655,SBD,Single-ply,Open
9,Vladimir Rostum,Владимир Ростум,82.5,M,1981,79.7,250,130,250,630,SBD,Single-ply,Open
10,Konstantin Osipov,Константин Осипов,82.5,M,1970,80.25,240,170,220,630,SBD,Single-ply,Open
11,Aleksandr Lokhin,Александр Лохин,82.5,M,1986,80.45,230,170,220,620,SBD,Single-ply,Open
DQ,Sergey Obukhov,Сергей Обухов,82.5,M,1971,78.5,210,,,,SBD,Single-ply,Open
DQ,Igor Borovikov,Игорь Боровиков,82.5,M,1971,81.8,240,,,,SBD,Single-ply,Open
DQ,Aleksandr Ivanov,Александр Иванов,82.5,M,1982,80.75,,,,,SBD,Single-ply,Open
DQ,Anatoliy Pelevin,Анатолий Пелевин,82.5,M,1984,81.45,,,,,SBD,Single-ply,Open
1,Valeriy Petelguzov,Валерий Петельгузов,90,M,1985,89.4,315,230,315,860,SBD,Single-ply,Open
2,Alexey Kuzmin,Алексей Кузьмин,90,M,1982,87.15,300,205,315,820,SBD,Single-ply,Open
3,Andrey Bushuev,Андрей Бушуев,90,M,1977,89.15,275,215,250,740,SBD,Single-ply,Open
4,Sergey Brazhnik,Сергей Бражник,90,M,1973,87.65,275,180,250,705,SBD,Single-ply,Open
5,Aleksandr Garnov,Александр Гарнов,90,M,1971,89,240,195,277.5,712.5,SBD,Single-ply,Open
6,Ivan Lunev,Иван Лунев,90,M,1980,89.25,260,200,240,700,SBD,Single-ply,Open
7,Anton Shalamov,Антон Шаламов,90,M,1984,86.75,270,150,265,685,SBD,Single-ply,Open
8,Gennadiy Deys,Геннадий Дейс,90,M,1965,88.25,242.5,165,240,647.5,SBD,Single-ply,Open
9,Vyacheslav Karpov,Вячеслав Карпов,90,M,1985,85.8,235,160,235,630,SBD,Single-ply,Open
10,Aleksandr Drozdov,Александр Дроздов,90,M,1987,86.15,260,155,220,635,SBD,Single-ply,Open
11,Rustam Meniakhmetov,Рустам Мениахметов,90,M,1983,83.7,235,147.5,225,607.5,SBD,Single-ply,Open
12,Igor Sozontov,Игорь Созонтов,90,M,1973,85,235,135,215,585,SBD,Single-ply,Open
13,Denis Vasilev,Денис Васильев,90,M,1986,88.15,205,132.5,247.5,585,SBD,Single-ply,Open
14,Sergey Panfilov,Сергей Панфилов,90,M,1981,83.4,200,145,205,550,SBD,Single-ply,Open
15,Mikhail Tarlanov,Михаил Тарланов,90,M,1982,89.9,220,120,205,545,SBD,Single-ply,Open
16,Evgeniy Klimuk,Евгений Климук,90,M,1984,86.6,160,130,220,510,SBD,Single-ply,Open
DQ,Artur Beltsov,Артур Бельцов,90,M,1982,89.55,310,,,,SBD,Single-ply,Open
DQ,Oleg Senyukov,Олег Сенюков,90,M,1970,89.15,220,190,,,SBD,Single-ply,Open
DQ,Aleksey Ivas,Алексей Ивас,90,M,1976,87.9,,,,,SBD,Single-ply,Open
1,Anatoliy Arkhangelskiy,Анатолий Архангельский,100,M,1979,100,350,217.5,325,892.5,SBD,Single-ply,Open
2,Bogdan Kishkin,Богдан Кишкин,100,M,1975,99.7,300,205,300,805,SBD,Single-ply,Open
3,Mikhail Shchutskiy,Михаил Щуцкий,100,M,1981,96.9,290,210,280,780,SBD,Single-ply,Open
4,Aleksey Moldovan,Алексей Молдован,100,M,1978,97.1,280,215,280,775,SBD,Single-ply,Open
5,Denis Vikulev,Денис Викульев,100,M,1985,98.45,300,180,295,775,SBD,Single-ply,Open
6,Aleksey Lotov,Алексей Лотов,100,M,1979,100,300,200,275,775,SBD,Single-ply,Open
7,Grigoriy Gritsay,Григорий Грицай,100,M,1982,98.8,270,182.5,260,712.5,SBD,Single-ply,Open
8,Boris Strelnikov,Борис Стрельников,100,M,1979,97.65,260,200,250,710,SBD,Single-ply,Open
9,Pavel Bulygin,Павел Булыгин,100,M,1983,97.7,270,165,270,705,SBD,Single-ply,Open
10,Ivan Konev,Иван Конев,100,M,1982,96.9,270,145,270,685,SBD,Single-ply,Open
11,Aleksandr Laskitaev,Александр Ласкитаев,100,M,1983,98.15,250,180,255,685,SBD,Single-ply,Open
12,Vyacheslav Dostovalov,Вячеслав Достовалов,100,M,1978,91.35,270,180,210,660,SBD,Single-ply,Open
13,Aleksandr Klyaus,Александр Кляус,100,M,1980,94.4,240,170,220,630,SBD,Single-ply,Open
14,Aleksandr Lekomtsev,Александр Лекомцев,100,M,1972,96.2,225,155,240,620,SBD,Single-ply,Open
15,Aleksandr Stadnik,Александр Стадник,100,M,1966,95.1,215,142.5,230,587.5,SBD,Single-ply,Open
DQ,Evgeniy Mikulin,Евгений Микулин,100,M,1980,99.85,250,200,,,SBD,Single-ply,Open
DQ,Gleb Kirillov,Глеб Кириллов,100,M,1978,96.55,310,215,,,SBD,Single-ply,Open
DQ,Dmitriy Kuznetsov,Дмитрий Кузнецов,100,M,1976,98.7,300,,,,SBD,Single-ply,Open
DQ,Andrey Konovalov #2,Андрей Коновалов,100,M,1984,99.3,300,,,,SBD,Single-ply,Open
DQ,Aleksey Kalinin,Алексей Калинин,100,M,1984,99.55,280,,,,SBD,Single-ply,Open
1,Nikolay Serikov,Николай Сериков,110,M,1984,108.2,380,250,330,960,SBD,Single-ply,Open
2,Evgeniy Syrodubov,Евгений Сыродубов,110,M,1987,104.25,290,215,290,795,SBD,Single-ply,Open
3,Anatoliy Boykov,Анатолий Бойков,110,M,1984,108.15,250,155,270,675,SBD,Single-ply,Open
4,Vitaliy Tiranov,Виталий Тиранов,110,M,1987,108.55,240,155,260,655,SBD,Single-ply,Open
DQ,Evgeniy Pushkov,Евгений Пушков,110,M,1987,105.7,,,,,SBD,Single-ply,Open
1,Maksim Baruzdin,Максим Баруздин,125,M,1982,124.8,350,245,350,945,SBD,Single-ply,Open
2,Denis Kazanskiy,Денис Казанский,125,M,1977,117.35,367.5,190,327.5,885,SBD,Single-ply,Open
3,Aleksandr Grigorov,Александр Григоров,125,M,1990,118.5,310,185,250,745,SBD,Single-ply,Open
DQ,Sergey Shubitidze,Сергей Шубитидзе,125,M,1980,122.65,,,,,SBD,Single-ply,Open
DQ,Aleksandr Krinitskiy,Александр Криницкий,125,M,1972,112.85,300,,,,SBD,Single-ply,Open
1,Aleksey Mironov,Алексей Миронов,125+,M,1971,127.15,300,215,280,795,SBD,Single-ply,Open
DQ,Yuriy Kholodov,Юрий Холодов,125+,M,1982,129.2,200,,,,SBD,Single-ply,Open
