Name,CyrillicName,WeightClassKg,BirthYear,BodyweightKg,Bench1Kg,Bench2Kg,Bench3Kg,Best3BenchKg,TotalKg,Event,Equipment,Division,Sex,Place
Yulia Medvedeva,Юлия Медведева,44,2002,28,15,20,-22.5,20,20,B,Raw,Pro Youth,F,1
Rustam Kudusov,Рустам Кудусов,52,1997,51.5,50,55,57.5,57.5,57.5,B,Raw,Pro Teen,M,1
Pavel Peshkov,Павел Пешков,67.5,1993,66.7,-100,100,-105,100,100,B,Raw,Pro Teen,M,1
Yaroslav Rusinov,Ярослав Русинов,75,1993,73.9,-85,-85,85,85,85,B,Raw,Pro Teen,M,1
Aleksey Gusev,Алексей Гусев,82.5,1994,76,115,120,125,125,125,B,Raw,Pro Teen,M,1
Salavat Uruzaleev,Салават Урузалеев,56,1991,55.6,-80,85,87.5,87.5,87.5,B,Raw,Pro Juniors 20-23,M,1
Artur Suleymanov,Артур Сулейманов,60,1991,60,70,-75,-75,70,70,B,Raw,Pro Juniors 20-23,M,1
Sergey Mikhaylov,Сергей Михайлов,67.5,1994,66.8,115,125,127.5,127.5,127.5,B,Raw,Pro Teen,M,1
Vitaliy Kulikov,Виталий Куликов,67.5,1990,64.8,105,110,-115,110,110,B,Raw,Pro Juniors 20-23,M,2
Vadim Smirnov,Вадим Смирнов,67.5,1989,65.5,95,-100,100,100,100,B,Raw,Pro Juniors 20-23,M,3
Anton Talaleev,Антон Талалеев,67.5,1990,67.3,-85,-85,-85,,,B,Raw,Pro Juniors 20-23,M,DQ
Valeriy Lisienko,Валерий Лисиенко,67.5,1988,67.5,-130,-130,-130,,,B,Raw,Pro Juniors 20-23,M,DQ
Evgeniy Kharkovskiy,Евгений Харьковский,75,1989,72.5,130,135,-140,135,135,B,Raw,Pro Juniors 20-23,M,1
Artur Churakov,Артур Чураков,75,1992,70.9,122.5,-125,-125,122.5,122.5,B,Raw,Pro Juniors 20-23,M,2
Andrey Poplavskiy,Андрей Поплавский,75,1989,73.7,95,-100,-100,95,95,B,Raw,Pro Juniors 20-23,M,3
Dmitriy Cherteu,Дмитрий Чертеу,75,1992,74.6,90,-95,95,95,95,B,Raw,Pro Juniors 20-23,M,4
Andronik Simonyan,Андроник Симонян,82.5,1992,79.5,155,160,165,165,165,B,Raw,Pro Juniors 20-23,M,1
Artem Talantsev,Артем Таланцев,82.5,1992,78.4,110,117.5,122.5,122.5,122.5,B,Raw,Pro Juniors 20-23,M,2
Kirill Gayvaronskiy,Кирилл Гайваронский,82.5,1992,82.4,-105,110,-115,110,110,B,Raw,Pro Juniors 20-23,M,3
Artur Munasipov,Артур Мунасипов,90,1988,84.7,150,157.5,-162.5,157.5,157.5,B,Raw,Pro Juniors 20-23,M,1
Pavel Drogunov,Павел Дрогунов,90,1991,83.7,120,130,-132.5,130,130,B,Raw,Pro Juniors 20-23,M,2
Evgeniy Bukhtoyarov,Евгений Бухтояров,100+,1990,112.7,200,207.5,-212.5,207.5,207.5,B,Raw,Pro Juniors 20-23,M,1
Ekaterina Konovalova,Екатерина Коновалова,52,1986,51.9,65,67.5,70,70,70,B,Raw,Pro Open,F,1
Farid Pikashev,Фарид Пикашев,67.5,1985,62.3,135,145,-150,145,145,B,Raw,Pro Open,M,1
Anton Yagodin,Антон Ягодин,67.5,1987,63.3,-100,100,-105,100,100,B,Raw,Pro Open,M,2
Vadim Smirnov,Вадим Смирнов,67.5,1989,65.5,95,-100,100,100,100,B,Raw,Pro Open,M,3
Aleksandr Mikhaylov,Александр Михайлов,67.5,1983,63.5,87.5,92.5,-97.5,92.5,92.5,B,Raw,Pro Open,M,4
Mikhail Akleev,Михаил Аклеев,75,1985,73,135,142.5,-147.5,142.5,142.5,B,Raw,Pro Open,M,1
Evgeniy Kharkovskiy,Евгений Харьковский,75,1989,72.5,130,135,-140,135,135,B,Raw,Pro Open,M,2
Aleksey Yarovoy,Алексей Яровой,75,1985,73.7,125,135,-140,135,135,B,Raw,Pro Open,M,3
Aleksey Kozlov #5,Алексей Козлов,82.5,1982,82.1,165,-170,170,170,170,B,Raw,Pro Open,M,1
Dmitriy Ruzanov,Дмитрий Рузанов,82.5,1990,82.5,150,157.5,167.5,167.5,167.5,B,Raw,Pro Open,M,2
Andronik Simonyan,Андроник Симонян,82.5,1992,79.5,155,160,165,165,165,B,Raw,Pro Open,M,3
Donatas Isaenko,Донатас Исаенко,82.5,1987,78.1,140,-150,150,150,150,B,Raw,Pro Open,M,4
Artem Talantsev,Артем Таланцев,82.5,1992,78.4,110,117.5,122.5,122.5,122.5,B,Raw,Pro Open,M,5
Aleksandr Chikurov,Александр Чикуров,82.5,1988,80.4,102.5,120,-132.5,120,120,B,Raw,Pro Open,M,6
Aleksandr Eremeev,Александр Еремеев,90,1984,87.8,160,170,175,175,175,B,Raw,Pro Open,M,1
Tleuzhan Kunikin,Тлеужан Куникин,90,1975,88.5,160,170,-177.5,170,170,B,Raw,Pro Open,M,2
Artur Munasipov,Артур Мунасипов,90,1988,84.7,150,157.5,-162.5,157.5,157.5,B,Raw,Pro Open,M,3
Stanislav Grekov,Станислав Греков,90,1981,85.6,130,140,157.5,157.5,157.5,B,Raw,Pro Open,M,4
Anatoliy Medvedev,Анатолий Медведев,90,1983,87.5,147.5,150,-152.5,150,150,B,Raw,Pro Open,M,5
Ruslan Ishmukhametov,Руслан Ишмухаметов,90,1976,85.4,140,-145,145,145,145,B,Raw,Pro Open,M,6
Aleksandr Makievskiy,Александр Макиевский,90,1985,86.5,-140,-145,-145,,,B,Raw,Pro Open,M,DQ
Nikolay Ruksha,Николай Рукша,90,1982,88.5,-150,-157.5,-157.5,,,B,Raw,Pro Open,M,DQ
Maksim Gornastalev,Максим Горнасталев,100,1983,92.6,200,205,212.5,212.5,212.5,B,Raw,Pro Open,M,1
Ivan Melnik,Иван Мельник,100,1986,95,150,165,170,170,170,B,Raw,Pro Open,M,2
Viktor Eremenko,Виктор Еременко,100,1970,99.7,160,170,-180,170,170,B,Raw,Pro Open,M,3
Igor Lyzhin,Игорь Лыжин,100,1959,94.5,150,165,-175,165,165,B,Raw,Pro Open,M,4
Evgeniy Bukhtoyarov,Евгений Бухтояров,100+,1990,112.7,200,207.5,-212.5,207.5,207.5,B,Raw,Pro Open,M,1
Dmitriy Lalo,Дмитрий Лало,100+,1970,106.3,170,180,190,190,190,B,Raw,Pro Open,M,2
Ilya Zatsepin,Илья Зацепин,100+,1985,125.3,155,160,-170,160,160,B,Raw,Pro Open,M,3
Oleg Gorev,Олег Горев,100+,1988,103.6,140,150,-155,150,150,B,Raw,Pro Open,M,4
Elena Kushkova,Елена Кушкова,52,1967,50.5,40,45,-47.5,45,45,B,Raw,Pro Masters,F,1
Aleksandr Tsindik,Александр Циндик,90,1950,89.9,100,-107.5,-110,100,100,B,Raw,Pro Masters,M,1
Viktor Eremenko,Виктор Еременко,100,1970,99.7,160,170,-180,170,170,B,Raw,Pro Masters,M,1
Igor Lyzhin,Игорь Лыжин,100,1959,94.5,150,165,-175,165,165,B,Raw,Pro Masters,M,2
Sergey Lukyanov,Сергей Лукьянов,100,1960,99.2,145,-152.5,152.5,152.5,152.5,B,Raw,Pro Masters,M,3
Vladimir Ryabusov,Владимир Рябусов,100,1961,99,135,140,142.5,142.5,142.5,B,Raw,Pro Masters,M,4
Aleksandr Kolesnikov,Александр Колесников,100,1951,95.1,125,-135,135,135,135,B,Raw,Pro Masters,M,5
Dmitriy Lalo,Дмитрий Лало,100+,1970,106.3,170,180,190,190,190,B,Raw,Pro Masters,M,1
