Name,CyrillicName,Division,BirthDate,BodyweightKg,WeightClassKg,Sex,Squat1Kg,Squat2Kg,Squat3Kg,Best3SquatKg,Bench1Kg,Bench2Kg,Bench3Kg,Best3BenchKg,Deadlift1Kg,Deadlift2Kg,Deadlift3Kg,Best3DeadliftKg,TotalKg,Event,Equipment,Place
Liliya Kulbiyarova,Лилия Кульбиярова,Pro Open,1988-04-07,52.3,56,F,,,,,45,47.5,-50,47.5,,,,,47.5,B,Raw,1
Yuliya Shcherbinina,Юлия Щербинина,Pro Open,1978-07-01,59,60,F,,,,,60,-65,65,65,,,,,65,B,Raw,1
Lyubov Klevakina,Любовь Клевакина,Pro Open,1982-03-24,65.4,67.5,F,,,,,50,55,-60,55,,,,,55,B,Raw,1
Elena Chepkaya,Елена Чепкая,Pro Open,1989-02-28,67.8,75,F,,,,,80,85,87.5,87.5,,,,,87.5,B,Raw,1
Nikita Frolov,Никита Фролов,Pro Teen 16-17,1998-06-02,63.9,67.5,M,,,,,107.5,110,-112.5,110,,,,,110,B,Raw,1
Ilya Bersenev,Илья Берсенев,Pro Teen 18-19,1997-12-25,65.6,67.5,M,,,,,107.5,,,107.5,,,,,107.5,B,Raw,1
Artem Zelenin,Артем Зеленин,Pro Teen 18-19,1996-09-08,74.4,75,M,,,,,145,150,152.5,152.5,,,,,152.5,B,Raw,1
Konstantin Sidenkov,Константин Сиденков,Pro Masters 45-49,1967-10-30,70.6,75,M,,,,,110,115,-120,115,,,,,115,B,Raw,1
Aleksandr Sukhodoev,Александр Суходоев,Pro Teen 13-15,2003-01-27,80,82.5,M,,,,,40,45,50,50,,,,,50,B,Raw,1
Pavel Gladkikh,Павел Гладких,Pro Teen 16-17,1998-08-31,75.9,82.5,M,,,,,-112.5,112.5,115,115,,,,,115,B,Raw,1
Sergey Suvorov,Сергей Суворов,Pro Open,1989-08-31,81.4,82.5,M,,,,,145,-152.5,152.5,152.5,,,,,152.5,B,Raw,1
Eduard Nozhkov,Эдуард Ножков,Pro Masters 40-44,1975-11-10,81.5,82.5,M,,,,,150,155,-160,155,,,,,155,B,Raw,1
Artush Karapetyan,Артуш Карапетян,Pro Open,1991-10-20,88.6,90,M,,,,,130,135,-140,135,,,,,135,B,Raw,3
Artem Igoshin,Артем Игошин,Pro Juniors 20-23,1993-07-17,87.4,90,M,,,,,125,130,132.5,132.5,,,,,132.5,B,Raw,2
Roman Lyushkin,Роман Люшкин,Pro Open,1978-11-12,86.4,90,M,,,,,145,150,-155,150,,,,,150,B,Raw,2
Alimzhan Kadyrov,Алимжан Кадыров,Pro Juniors 20-23,1994-02-27,87.7,90,M,,,,,125,137.5,-145,137.5,,,,,137.5,B,Raw,1
Pavel Shapenov,Павел Шапенов,Pro Open,1990-02-12,89.9,90,M,,,,,160,165,167.5,167.5,,,,,167.5,B,Raw,1
Sergey Nechaev,Сергей Нечаев,Pro Masters 40-44,1971-07-20,89.7,90,M,,,,,140,150,,150,,,,,150,B,Raw,1
Stepan Ivanov,Степан Иванов,Pro Teen 13-15,2003-04-09,93.3,100,M,,,,,50,52.5,55,55,,,,,55,B,Raw,1
Timur Kadyrov,Тимур Кадыров,Pro Teen 16-17,1999-03-20,95.5,100,M,,,,,100,110,117.5,117.5,,,,,117.5,B,Raw,1
Arseniy Klevakin,Арсений Клевакин,Pro Open,1979-10-15,97.3,100,M,,,,,175,185,-190,185,,,,,185,B,Raw,1
Maksim Gareev,Максим Гареев,Pro Open,1979-03-13,95.9,100,M,,,,,145,-150,155,155,,,,,155,B,Raw,2
Dmitriy Karelin,Дмитрий Карелин,Pro Masters 45-49,1968-09-27,96.1,100,M,,,,,160,165,,165,,,,,165,B,Raw,1
Dmitriy Chertushkin,Дмитрий Чертушкин,Pro Masters 50-54,1965-08-15,95,100,M,,,,,155,160,162.5,162.5,,,,,162.5,B,Raw,1
Ivan Chevardin,Иван Чевардин,Pro Masters 55-59,1958-05-03,99,100,M,,,,,165,-170,-170,165,,,,,165,B,Raw,1
Anton Antropov,Антон Антропов,Pro Juniors 20-23,1993-12-31,104.1,110,M,,,,,135,142.5,145,145,,,,,145,B,Raw,1
Semen Kotov,Семен Котов,Pro Teen 18-19,1997-02-01,103,110,M,,,,,130,135,-140,135,,,,,135,B,Raw,1
Stepan Skorynin,Степан Скорынин,Pro Open,1977-05-30,112.3,125,M,,,,,155,-162.5,162.5,162.5,,,,,162.5,B,Raw,1
Vladimir Tokarev,Владимир Токарев,Pro Masters 40-44,1973-09-04,119.2,125,M,,,,,155,162.5,-165,162.5,,,,,162.5,B,Raw,1
Anatoliy Lukyanov,Анатолий Лукьянов,Pro Masters 65-69,1949-11-21,114,125,M,,,,,125,130,,130,,,,,130,B,Raw,1
Dmitriy Merenkov,Дмитрий Меренков,Pro Masters 50-54,1966-03-23,143.6,140+,M,,,,,180,190,-195,190,,,,,190,B,Raw,1
Dmitriy Merenkov,Дмитрий Меренков,Pro Open,1966-03-23,143.6,140+,M,,,,,180,190,-195,190,,,,,190,B,Raw,1
Vladislav Zamuruev,Владислав Замуруев,Pro Teen 18-19,1996-09-17,70.3,75,M,,,,,-165,165,-175,165,,,,,165,B,Single-ply,1
Liliya Baglaeva,Лилия Баглаева,Pro Open,,59,60,F,-70,70,80,80,50,-55,-55,50,90,100,110,110,240,SBD,Wraps,1
Konstantin Kostin,Константин Костин,Pro Teen 16-17,1999-04-22,69.8,75,M,70,-80,-80,70,-50,50,52.5,52.5,80,90,100,100,222.5,SBD,Wraps,2
Nikita Shmakov,Никита Шмаков,Pro Teen 16-17,1999-03-29,74.5,75,M,100,110,115,115,70,75,-80,75,120,130,-135,130,320,SBD,Wraps,1
Aleksandr Chertushkin,Александр Чертушкин,Pro Teen 18-19,1997-09-21,75,75,M,100,110,-120,110,75,82.5,-90,82.5,-100,110,120,120,312.5,SBD,Wraps,2
Valeriy Anisimkov,Валерий Анисимков,Pro Teen 18-19,1998-03-21,71.4,75,M,160,165,172.5,172.5,105,110,-115,110,190,197.5,-202.5,197.5,480,SBD,Wraps,1
Dmitriy Ivanov,Дмитрий Иванов,Pro Open,1989-06-28,81,82.5,M,150,160,-170,160,115,125,127.5,127.5,170,185,200,200,487.5,SBD,Wraps,2
Nikita Stryuchenko,Никита Стрюченко,Pro Open,1984-03-12,81.7,82.5,M,155,165,175,175,125,130,-135,130,165,180,190,190,495,SBD,Wraps,1
Konstantin Cherepakhin,Константин Черепахин,Pro Open,1988-06-05,86.7,90,M,-155,155,-160,155,-105,110,-120,110,160,165,175,175,440,SBD,Wraps,2
Sergey Polukhin,Сергей Полухин,Pro Open,1986-07-23,86.1,90,M,-160,160,-170,160,110,115,-122.5,115,160,-165,170,170,445,SBD,Wraps,1
Vladimir Zykov,Владимир Зыков,Pro Teen 18-19,1997-01-14,96.1,100,M,160,170,-180,170,105,110,115,115,170,180,190,190,475,SBD,Wraps,1
Aleksandr Kutsyk,Александр Куцык,Pro Open,1981-06-07,108.8,110,M,160,-170,170,170,-110,110,115,115,190,205,207.5,207.5,492.5,SBD,Wraps,1
Timofey Klevakin,Тимофей Клевакин,Pro Youth,2008-10-19,25.7,52,M,,,,,,,,,45,50,55,55,55,D,Raw,1
Artem Zelenin,Артем Зеленин,Pro Teen 18-19,1996-09-08,74.4,75,M,,,,,,,,,175,185,195,195,195,D,Raw,1
Roman Lyushkin,Роман Люшкин,Pro Open,1978-11-12,86.4,90,M,,,,,,,,,-165,-170,175,175,175,D,Raw,1
Aleksey Grach,Алексей Грач,Pro Masters 50-54,1962-10-01,89.3,90,M,,,,,,,,,-240,250,-255,250,250,D,Raw,1
Arseniy Klevakin,Арсений Клевакин,Pro Open,1979-10-15,,100,M,,,,,,,,,235,-250,-250,235,235,D,Raw,2
Dmitriy Gushchin,Дмитрий Гущин,Pro Open,1985-08-27,98.4,100,M,,,,,,,,,-270,292.5,300,300,300,D,Raw,1
Aleksandr Kutsyk,Александр Куцык,Pro Open,1981-06-07,108.8,110,M,,,,,,,,,190,205,207.5,207.5,207.5,D,Raw,1
Vitaliy Tikhonov,Виталий Тихонов,Pro Open,1988-10-15,112.7,125,M,,,,,,,,,240,-250,-250,240,240,D,Raw,1
