Place,Sex,Name,CyrillicName,BodyweightKg,Squat1Kg,Squat2Kg,Squat3Kg,Best3SquatKg,Squat4Kg,Bench1Kg,Bench2Kg,Bench3Kg,Best3BenchKg,Bench4Kg,Deadlift1Kg,Deadlift2Kg,Deadlift3Kg,Best3DeadliftKg,Deadlift4Kg,TotalKg,WeightClassKg,Event,Equipment,Tested,Division,Age,BirthDate
1,F,Zara Arutyunyan,Зара Арутюнян,52,50,60,-70,60,,35,-40,-40,35,,80,90,100,100,,195,52,SBD,Raw,Yes,Open,25,1991-05-30
1,F,Irina Gryzuleva,Ирина Грызулева,54.4,-80,80,-82.5,80,,-50,50,-52.5,50,,97.5,105,-112.5,105,,235,56,SBD,Raw,Yes,Open,41,1975-03-17
1,F,Elizaveta Lyubimova,Елизавета Любимова,58.5,50,57.5,-62.5,57.5,,30,-32.5,-35,30,,50,62.5,67.5,67.5,,155,60,SBD,Raw,Yes,Teen 18-19,19,1997-01-26
1,F,Irina Odintsova,Ирина Одинцова,59.3,75,85,-95,85,,50,55,-60,55,,90,100,107.5,107.5,,247.5,60,SBD,Raw,Yes,Open,31,1985-06-24
2,F,Alena Kuzmina,Алена Кузьмина,59.7,80,-85,-87.5,80,,-45,45,-47.5,45,,100,115,-130,115,,240,60,SBD,Raw,Yes,Open,25,1991-01-28
1,F,Anna Eltsina,Анна Ельцина,65.8,80,90,97.5,97.5,,50,-55,-55,50,,80,100,122.5,122.5,,270,67.5,SBD,Raw,Yes,Juniors 20-23,22,1993-12-31
1,F,Tatyana Varenyuk,Татьяна Варенюк,62.4,115,120,125,125,,60,65,70,70,,125,140,150,150,,345,67.5,SBD,Raw,Yes,Open,31,1985-03-08
DQ,F,Kseniya Kurylyova,Ксения Курылёва,73.7,75,-82.5,-82.5,75,,-47.5,-47.5,-47.5,,,,,,,,,75,SBD,Raw,Yes,Open,24,1992-10-10
1,M,Abdul Mirzoev,Абдул Мирзоев,47.95,-65,65,70,70,,50,57.5,-62.5,57.5,,75,85,95,95,,222.5,52,SBD,Raw,Yes,Juniors 20-23,20,1996-12-04
1,M,Oleg Dvoynikov,Олег Двойников,60,-115,120,125,125,,87.5,90,92.5,92.5,,155,165,170,170,,387.5,60,SBD,Raw,Yes,Open,56,1960-10-08
1,M,Roman Lyuskov,Роман Люсков,66.2,135,-145,145,145,,90,-95,95,95,,135,-152.5,-152.5,135,,375,67.5,SBD,Raw,Yes,Teen 16-17,17,1999-11-08
1,M,Mikhail Kuznetsov,Михаил Кузнецов,66.35,130,140,-142.5,140,,95,-105,-105,95,,150,160,-172.5,160,,395,67.5,SBD,Raw,Yes,Open,26,1990-09-03
2,M,Roman Lyuskov,Роман Люсков,66.2,135,-145,145,145,,90,-95,95,95,,135,-152.5,-152.5,135,,375,67.5,SBD,Raw,Yes,Open,17,1999-11-08
1,M,Yan Lenok,Ян Ленок,73.3,135,142.5,-150,142.5,,92.5,97.5,-102.5,97.5,,170,-180,180,180,,420,75,SBD,Raw,Yes,Teen 13-15,15,2001-08-08
1,M,Sergey Efimtsov,Сергей Ефимцов,72.9,-145,-150,150,150,,100,-110,-110,100,,195,-207.5,207.5,207.5,,457.5,75,SBD,Raw,Yes,Open,25,1991-08-23
1,M,Saveliy Gayduk,Савелий Гайдук,69.3,80,90,,90,,60,62.5,,62.5,,110,120,130,130,,282.5,75,SBD,Raw,Yes,Masters 60-64,60,1956-01-19
1,M,Artem Popov,Артем Попов,82.1,190,-200,200,200,,135,140,145,145,,220,230,240,240,,585,82.5,SBD,Raw,Yes,Open,25,1991-04-08
2,M,Artem Shasherin,Артем Шашерин,81.4,185,195,202.5,202.5,,130,137.5,142.5,142.5,,215,222.5,227.5,227.5,,572.5,82.5,SBD,Raw,Yes,Open,32,1984-11-08
3,M,Roman Radzhabov,Роман Раджабов,82.2,150,-155,155,155,,100,110,112.5,112.5,,150,170,190,190,,457.5,82.5,SBD,Raw,Yes,Open,31,1985-02-23
4,M,Nikita Zuev,Никита Зуев,80.4,140,145,-150,145,,105,110,-112.5,110,,160,180,-200,180,,435,82.5,SBD,Raw,Yes,Open,30,1986-12-02
DQ,M,Aleksandr Morozov,Александр Морозов,80,190,197.5,205,205,,137.5,-142.5,-142.5,137.5,,,,,,,,82.5,SBD,Raw,Yes,Open,33,1983-07-30
DQ,M,Vadim Malov,Вадим Малов,80.9,-185,-200,-200,,,,,,,,,,,,,,82.5,SBD,Raw,Yes,Open,26,1990-01-27
1,M,Anatoliy Kozin,Анатолий Козин,86.9,115,-125,125,125,,95,100,-105,100,,140,150,170,170,,395,90,SBD,Raw,Yes,Open,29,1987-10-06
DQ,M,Samvel Danielyan,Самвел Даниелян,88.55,180,-190,-195,180,,-140,-140,-140,,,,,,,,,90,SBD,Raw,Yes,Open,25,1991-04-17
1,M,Igor Chayka,Игорь Чайка,93.4,-190,-190,190,190,,95,105,-110,105,,210,-230,230,230,,525,100,SBD,Raw,Yes,Juniors 20-23,22,1994-06-09
1,M,Aleksandr Molodtsov,Александр Молодцов,94.55,190,-212.5,-212.5,190,,140,147.5,-155,147.5,,220,230,-240,230,,567.5,100,SBD,Raw,Yes,Open,38,1978-10-21
2,M,Igor Chayka,Игорь Чайка,93.4,-190,-190,190,190,,95,105,-110,105,,210,-230,230,230,,525,100,SBD,Raw,Yes,Open,22,1994-06-09
DQ,M,Aleksandr Kozin,Александр Козин,93.7,-140,-140,-140,,,-105,-105,,,,,,,,,,100,SBD,Raw,Yes,Open,32,1984-11-14
1,M,Nikolay Shasherin,Николай Шашерин,101.9,250,260,-270,260,,170,-180,-180,170,,260,270,282.5,282.5,,712.5,110,SBD,Raw,Yes,Open,29,1987-01-20
2,M,Petr Kiselkin,Петр Киселкин,107.1,-170,170,190,190,,-140,150,-155,150,,215,235,250,250,,590,110,SBD,Raw,Yes,Open,32,1984-05-09
1,M,Sergey Moiseev,Сергей Моисеев,98.6,205,215,-222.5,215,,145,152.5,-155,152.5,,255,265,,265,,632.5,100,SBD,Raw,No,Open,39,1977-08-24
2,M,Denis Chugunov,Денис Чугунов,96.3,190,200,-205,200,,140,150,-155,150,,-240,250,-255,250,,600,100,SBD,Raw,No,Open,29,1987-06-08
DQ,M,Nikolay Andreev,Николай Андреев,99.9,-192.5,-192.5,-192.5,,,,,,,,,,,,,,100,SBD,Raw,No,Open,26,1990-04-20
1,M,Valeriy Kosterin,Валерий Костерин,109.3,240,245,250,250,,175,180,-182.5,180,,265,270,275,275,,705,110,SBD,Raw,No,Open,25,1991-07-26
1,M,Aleksandr Rek,Александр Рек,67.2,207.5,217.5,-225,217.5,,-115,115,-122.5,115,,187.5,-197.5,197.5,197.5,,530,67.5,SBD,Wraps,Yes,Open,29,1987-07-13
1,M,Nikita Lichutin,Никита Личутин,82,-210,220,-230,220,,120,130,-135,130,,215,-235,-235,215,,565,82.5,SBD,Wraps,Yes,Juniors 20-23,22,1994-07-10
1,M,Dmitriy Yarovoy,Дмитрий Яровой,87.4,145,155,165,165,,120,125,-130,125,,200,210,220,220,,510,90,SBD,Wraps,Yes,Open,26,1990-03-27
1,M,Aleksandr Rek,Александр Рек,67.2,207.5,217.5,-225,217.5,,-115,115,-122.5,115,,187.5,-197.5,197.5,197.5,,530,67.5,SBD,Wraps,No,Open,29,1987-07-13
1,M,Mikhail Boykov,Михаил Бойков,81.9,160,175,180,180,,112.5,-117.5,117.5,117.5,,150,165,175,175,,472.5,82.5,SBD,Wraps,No,Teen 18-19,19,1997-10-19
1,M,Ilya Parylin,Илья Парылин,82.1,215,225,235,235,,-145,145,-150,145,,225,250,-260,250,,630,82.5,SBD,Wraps,No,Open,32,1984-03-31
2,M,Aleksandr Borisov,Александр Борисов,80,190,-210,215,215,,150,155,160,160,,220,230,-245,230,,605,82.5,SBD,Wraps,No,Open,27,1989-12-16
3,M,Aleksandr Klinovitskiy,Александр Клиновицкий,79.4,140,150,160,160,,100,110,-115,110,,160,175,185,185,,455,82.5,SBD,Wraps,No,Open,24,1992-01-31
1,M,Sergey Surkov,Сергей Сурков,88.8,200,215,222.5,222.5,,155,160,-165,160,,247.5,-255,-255,247.5,,630,90,SBD,Wraps,No,Open,31,1985-10-14
2,M,Sergey Golubkov,Сергей Голубков,87.7,210,-220,220,220,,-140,140,-147.5,140,,245,-255,255,255,,615,90,SBD,Wraps,No,Open,26,1990-12-14
1,M,Dmitriy Ivanov,Дмитрий Иванов,99,210,230,250,250,,115,125,-140,125,,210,230,250,250,,625,100,SBD,Wraps,No,Juniors 20-23,20,1996-05-31
1,M,Aleksey Yakushevich,Алексей Якушевич,94.4,290,302.5,-310,302.5,,170,180,,180,,285,300,307.5,307.5,,790,100,SBD,Wraps,No,Open,25,1991-07-02
DQ,M,Roman Sharapov,Роман Шарапов,100,-280,-300,-300,,,,,,,,,,,,,,100,SBD,Wraps,No,Open,29,1987-03-18
1,M,Anton Kalininskiy,Антон Калининский,105.25,250,260,-270,260,,140,147.5,-155,147.5,,242.5,250,-255,250,,657.5,110,SBD,Wraps,No,Open,29,1987-02-15
1,M,Aleksandr Chayka,Александр Чайка,111,210,230,-250,230,,130,140,-150,140,,190,-200,200,200,,570,125,SBD,Single-ply,No,Open,30,1986-12-12
1,M,Aleksandr Rek,Александр Рек,67.2,207.5,217.5,-225,217.5,,,,,,,,,,,,217.5,67.5,S,Wraps,Yes,Open,29,1987-07-13
2,M,Nikolay Chekanov,Николай Чеканов,67.5,-190,-190,190,190,,,,,,,,,,,,190,67.5,S,Wraps,Yes,Open,32,1984-02-29
1,M,Aleksandr Rek,Александр Рек,67.2,207.5,217.5,-225,217.5,,,,,,,,,,,,217.5,67.5,S,Wraps,No,Open,29,1987-07-13
1,M,Sergey Surkov,Сергей Сурков,88.8,200,215,222.5,222.5,,,,,,,,,,,,222.5,90,S,Wraps,No,Open,31,1985-10-14
1,M,Nikita Leontev,Никита Леонтьев,97.95,240,-267.5,-267.5,240,,,,,,,,,,,,240,100,S,Wraps,No,Juniors 20-23,21,1995-06-23
1,M,Aleksey Yakushevich,Алексей Якушевич,94.4,290,302.5,-310,302.5,,,,,,,,,,,,302.5,100,S,Wraps,No,Open,25,1991-07-02
1,F,Kseniya Baranova,Ксения Баранова,55.7,90,97.5,-105,97.5,,,,,,,,,,,,97.5,56,S,Raw,Yes,Teen 16-17,17,1999-10-07
1,M,Anton Zemskov,Антон Земсков,66.2,147.5,152.5,155,155,,,,,,,,,,,,155,67.5,S,Raw,Yes,Teen 16-17,17,1999-04-05
1,M,Aleksandr Morozov,Александр Морозов,80,190,197.5,205,205,,,,,,,,,,,,205,82.5,S,Raw,Yes,Open,33,1983-07-30
1,M,Mikhail Vershok,Михаил Вершок,89,175,182.5,-187.5,182.5,,,,,,,,,,,,182.5,90,S,Raw,Yes,Teen 16-17,16,2000-01-07
1,M,Sergey Moiseev,Сергей Моисеев,98.6,205,215,-222.5,215,,,,,,,,,,,,215,100,S,Raw,No,Open,39,1977-08-24
1,F,Elizaveta Bazhenova,Елизавета Баженова,46.6,,,,,,52.5,55,,55,,,,,,,55,48,B,Raw,Yes,Open,25,1991-07-03
2,F,Elena Nelyubova,Елена Нелюбова,46.7,,,,,,37.5,-45,-45,37.5,,,,,,,37.5,48,B,Raw,Yes,Open,29,1987-05-14
1,F,Elena Sokolova,Елена Соколова,51.2,,,,,,47.5,-50,-50,47.5,,,,,,,47.5,52,B,Raw,Yes,Open,26,1990-01-11
1,F,Vladislava Dluzhnevskaya,Владислава Длужневская,59.7,,,,,,100,105,110,110,,,,,,,110,60,B,Raw,Yes,Teen 16-17,16,2000-06-10
1,F,Vladislava Dluzhnevskaya,Владислава Длужневская,59.7,,,,,,100,105,110,110,,,,,,,110,60,B,Raw,Yes,Open,16,2000-06-10
2,F,Lyubov Emelicheva,Любовь Емеличева,60,,,,,,57.5,60,-62.5,60,,,,,,,60,60,B,Raw,Yes,Open,26,1989-12-24
3,F,Irina Odintsova,Ирина Одинцова,59.3,,,,,,-55,55,-60,55,,,,,,,55,60,B,Raw,Yes,Open,31,1985-06-24
1,F,Yana Krutikova,Яна Крутикова,61.1,,,,,,60,-65,-65,60,,,,,,,60,67.5,B,Raw,Yes,Open,30,1986-11-29
1,F,Alena Tretyakova,Алена Третьякова,73.7,,,,,,65,70,-72.5,70,,,,,,,70,75,B,Raw,Yes,Teen 16-17,17,1998-12-28
1,M,Ilya Mitin,Илья Митин,50.1,,,,,,55,60,62.5,62.5,,,,,,,62.5,52,B,Raw,Yes,Teen 13-15,14,2002-07-16
1,M,Sergey Shilnikovskiy,Сергей Шильниковский,59.5,,,,,,107.5,112.5,-117.5,112.5,,,,,,,112.5,60,B,Raw,Yes,Teen 18-19,18,1998-05-06
1,M,Oleg Dvoynikov,Олег Двойников,60,,,,,,87.5,90,92.5,92.5,,,,,,,92.5,60,B,Raw,Yes,Open,56,1960-10-08
1,M,Andrey Sergeev,Андрей Сергеев,64.4,,,,,,95,107.5,112.5,112.5,,,,,,,112.5,67.5,B,Raw,Yes,Teen 18-19,19,1997-03-06
DQ,M,Ilya Osovskoy,Илья Осовской,64.6,,,,,,-102.5,-102.5,-102.5,,,,,,,,,67.5,B,Raw,Yes,Teen 18-19,18,1998-01-02
1,M,Oleg Puzanov,Олег Пузанов,64.2,,,,,,-115,-125,125,125,,,,,,,125,67.5,B,Raw,Yes,Juniors 20-23,21,1995-05-25
2,M,Anton Zaytsev,Антон Зайцев,65.5,,,,,,110,115,-120,115,,,,,,,115,67.5,B,Raw,Yes,Juniors 20-23,22,1994-11-19
1,M,Ilya Beloborodov,Илья Белобородов,64.6,,,,,,-115,115,125,125,,,,,,,125,67.5,B,Raw,Yes,Open,27,1989-02-21
2,M,Mikhail Molchanov,Михаил Молчанов,65.5,,,,,,115,125,-127.5,125,,,,,,,125,67.5,B,Raw,Yes,Open,29,1987-04-29
1,M,Sergey Piyalkin,Сергей Пиялкин,63.3,,,,,,102.5,-107.5,107.5,107.5,,,,,,,107.5,67.5,B,Raw,Yes,Masters 45-49,46,1970-04-14
1,M,Maksim Kuznetsov,Максим Кузнецов,73,,,,,,107.5,117.5,120,120,,,,,,,120,75,B,Raw,Yes,Juniors 20-23,21,1995-01-04
1,M,Aleksandr Rassokhin,Александр Рассохин,75,,,,,,150,155,162.5,162.5,,,,,,,162.5,75,B,Raw,Yes,Open,31,1985-10-08
2,M,Aleksey Ivashevskiy,Алексей Ивашевский,73.9,,,,,,107.5,-117.5,-117.5,107.5,,,,,,,107.5,75,B,Raw,Yes,Open,37,1978-12-29
3,M,Artem Sapogov,Артем Сапогов,71.9,,,,,,-105,105,-117.5,105,,,,,,,105,75,B,Raw,Yes,Open,26,1990-09-26
DQ,M,Roman Bogachev,Роман Богачев,76.4,,,,,,-120,-120,-120,,,,,,,,,82.5,B,Raw,Yes,Juniors 20-23,20,1996-02-07
1,M,Aleksandr Kononov,Александр Кононов,79.7,,,,,,145,147.5,-152.5,147.5,,,,,,,147.5,82.5,B,Raw,Yes,Open,24,1992-05-09
2,M,Aleksandr Morozov,Александр Морозов,80,,,,,,137.5,-142.5,-142.5,137.5,,,,,,,137.5,82.5,B,Raw,Yes,Open,33,1983-07-30
1,M,Aleksey Baranov,Алексей Баранов,87.65,,,,,,-130,-132.5,132.5,132.5,,,,,,,132.5,90,B,Raw,Yes,Teen 16-17,17,1999-03-13
1,M,Sergey Nelaev,Сергей Нелаев,90,,,,,,155,160,-165,160,,,,,,,160,90,B,Raw,Yes,Open,34,1982-03-01
2,M,Anton Perov,Антон Перов,88.85,,,,,,140,152.5,-160,152.5,,,,,,,152.5,90,B,Raw,Yes,Open,29,1987-08-25
3,M,Aleksey Tokarev,Алексей Токарев,88.6,,,,,,110,-120,-120,110,,,,,,,110,90,B,Raw,Yes,Open,26,1990-10-09
4,M,Oleg Orlov,Олег Орлов,89.5,,,,,,102.5,110,-120,110,,,,,,,110,90,B,Raw,Yes,Open,32,1984-01-29
DQ,M,Oleg Kuznetsov,Олег Кузнецов,88.3,,,,,,-145,-152.5,-152.5,,,,,,,,,90,B,Raw,Yes,Open,26,1990-09-09
1,M,Sergey Spirkov,Сергей Спирков,84.9,,,,,,95,97.5,100,100,,,,,,,100,90,B,Raw,Yes,Masters 45-49,45,1971-01-05
1,M,Mikhail Kanin,Михаил Канин,97.8,,,,,,175,180,-185,180,,,,,,,180,100,B,Raw,Yes,Open,38,1978-07-06
2,M,Ivan Volchek,Иван Волчек,98.5,,,,,,155,162.5,-170,162.5,,,,,,,162.5,100,B,Raw,Yes,Open,30,1986-12-22
3,M,Aleksey Sushkov,Алексей Сушков,95.85,,,,,,-152.5,152.5,-162.5,152.5,,,,,,,152.5,100,B,Raw,Yes,Open,31,1985-06-19
4,M,Aleksey Sergeev,Алексей Сергеев,94,,,,,,130,140,-145,140,,,,,,,140,100,B,Raw,Yes,Open,32,1983-12-27
1,M,Sergey Shamov,Сергей Шамов,91,,,,,,155,162.5,165,165,,,,,,,165,100,B,Raw,Yes,Masters 40-44,43,1973-08-21
1,M,Sergey Mukhtarov,Сергей Мухтаров,96.7,,,,,,145,150,-156,150,,,,,,,150,100,B,Raw,Yes,Masters 55-59,55,1961-02-17
1,M,Denis Malchikov,Денис Мальчиков,108.25,,,,,,212.5,222.5,227.5,227.5,,,,,,,227.5,110,B,Raw,Yes,Open,36,1980-06-12
DQ,M,Evgeniy Sroslov,Евгений Срослов,108.5,,,,,,-157.5,-157.5,-157.5,,,,,,,,,110,B,Raw,Yes,Open,38,1978-07-15
1,M,Sergey Raspopov,Сергей Распопов,108.4,,,,,,160,-167.5,167.5,167.5,,,,,,,167.5,110,B,Raw,Yes,Masters 40-44,41,1975-06-14
2,M,Leonid Peterson,Леонид Петерсон,108.6,,,,,,-150,150,-155,150,,,,,,,150,110,B,Raw,Yes,Masters 40-44,42,1974-04-22
DQ,M,Dmitriy Malygin,Дмитрий Малыгин,108.2,,,,,,-125,-125,-125,,,,,,,,,110,B,Raw,Yes,Masters 45-49,49,1967-04-12
1,M,Vadim Tarasov,Вадим Тарасов,103.6,,,,,,-147.5,147.5,-152.5,147.5,,,,,,,147.5,110,B,Raw,Yes,Masters 50-54,54,1962-01-23
1,M,Anatoliy Logunov,Анатолий Логунов,109.3,,,,,,150,155,-160,155,,,,,,,155,110,B,Raw,Yes,Masters 60-64,63,1953-01-08
1,M,Artem Vorontsov,Артем Воронцов,110.1,,,,,,205,-210,-210,205,,,,,,,205,125,B,Raw,Yes,Open,40,1976-08-03
2,M,Yuriy Sudavnyy,Юрий Судавный,113.8,,,,,,170,177.5,180,180,,,,,,,180,125,B,Raw,Yes,Open,36,1980-10-03
1,M,Artem Vorontsov,Артем Воронцов,110.1,,,,,,205,-210,-210,205,,,,,,,205,125,B,Raw,Yes,Masters 40-44,40,1976-08-03
1,F,Vladislava Dluzhnevskaya,Владислава Длужневская,59.7,,,,,,100,105,110,110,,,,,,,110,60,B,Raw,No,Teen 16-17,16,2000-06-10
1,F,Anastasiya Valoven,Анастасия Валовень,57.4,,,,,,40,-45,,40,,,,,,,40,60,B,Raw,No,Juniors 20-23,21,1994-12-27
1,F,Vladislava Dluzhnevskaya,Владислава Длужневская,59.7,,,,,,100,105,110,110,,,,,,,110,60,B,Raw,No,Open,16,2000-06-10
1,M,Vladimir Osipov,Владимир Осипов,64.9,,,,,,135,-142.5,142.5,142.5,,,,,,,142.5,67.5,B,Raw,No,Open,31,1985-10-27
1,M,Maksim Tulikov,Максим Туликов,82,,,,,,122.5,-127.5,-127.5,122.5,,,,,,,122.5,82.5,B,Raw,No,Open,39,1977-06-26
1,M,Vsevolod Smirnov,Всеволод Смирнов,87.8,,,,,,152.5,162.5,,162.5,,,,,,,162.5,90,B,Raw,No,Juniors 20-23,23,1993-08-02
1,M,Maksim Kartashov,Максим Карташов,89.8,,,,,,175,185,195,195,,,,,,,195,90,B,Raw,No,Open,26,1990-02-12
2,M,Sergey Surkov,Сергей Сурков,88.8,,,,,,155,160,-165,160,,,,,,,160,90,B,Raw,No,Open,31,1985-10-14
1,M,Sergey Zarubin,Сергей Зарубин,83.6,,,,,,120,125,130,130,,,,,,,130,90,B,Raw,No,Masters 55-59,57,1959-09-13
1,M,Vladimir Kozlov,Владимир Козлов,88.1,,,,,,160,167.5,170,170,-172.5,,,,,,170,90,B,Raw,No,Masters 60-64,62,1954-06-15
1,M,Nikita Leontev,Никита Леонтьев,97.95,,,,,,160,170,-180,170,,,,,,,170,100,B,Raw,No,Juniors 20-23,21,1995-06-23
1,M,Artem Markov,Артем Марков,99.7,,,,,,187.5,195,205,205,,,,,,,205,100,B,Raw,No,Open,30,1986-08-03
2,M,Aleksey Yakushevich,Алексей Якушевич,94.4,,,,,,170,180,,180,,,,,,,180,100,B,Raw,No,Open,25,1991-07-02
DQ,M,Aleksey Sobolev,Алексей Соболев,99.8,,,,,,-180,-190,,,,,,,,,,100,B,Raw,No,Masters 40-44,43,1973-03-31
1,M,Andrey Nikonorov,Андрей Никоноров,109.2,,,,,,220,230,240,240,,,,,,,240,110,B,Raw,No,Open,41,1975-10-26
2,M,Mikhail Solovev,Михаил Соловьев,107.45,,,,,,200,-210,-222.5,200,,,,,,,200,110,B,Raw,No,Open,31,1985-08-17
3,M,Sergey Gladkikh,Сергей Гладких,106.5,,,,,,175,-185,-185,175,,,,,,,175,110,B,Raw,No,Open,32,1984-05-29
4,M,Sergey Fenichev,Сергей Феничев,100.6,,,,,,160,170,,170,,,,,,,170,110,B,Raw,No,Open,29,1987-08-08
DQ,M,Valentin Pashovkin,Валентин Пашовкин,108,,,,,,-155,-167.5,-167.5,,,,,,,,,110,B,Raw,No,Open,31,1985-05-28
1,M,Ilya Kalininskiy,Илья Калининский,112.9,,,,,,215,-225,225,225,,,,,,,225,125,B,Raw,No,Open,27,1989-04-11
2,M,Oleg Khokhlov,Олег Хохлов,117.35,,,,,,-185,195,-202.5,195,,,,,,,195,125,B,Raw,No,Open,35,1981-04-18
DQ,M,Aleksandr Lazarev,Александр Лазарев,136.3,,,,,,-230,-230,-230,,,,,,,,,140,B,Raw,No,Open,30,1986-06-13
1,F,Olga Tyurina,Ольга Тюрина,59.8,,,,,,85,87.5,90,90,,,,,,,90,60,B,Single-ply,Yes,Open,39,1977-12-09
1,M,Nikolay Glazev,Николай Глазьев,117.7,,,,,,-242.5,-255,255,255,,,,,,,255,125,B,Single-ply,No,Open,33,1983-10-29
1,F,Natalya Gorislova,Наталья Горислова,66.5,,,,,,80,-85,-85,80,,,,,,,80,67.5,B,Multi-ply,Yes,Masters 40-44,44,1972-03-03
1,M,Evgeniy Kubyshkin,Евгений Кубышкин,80.25,,,,,,130,142.5,-150,142.5,,,,,,,142.5,82.5,B,Multi-ply,Yes,Open,29,1987-04-08
DQ,M,Klim Kachanov,Клим Качанов,89.05,,,,,,-160,-160,-160,,,,,,,,,90,B,Multi-ply,Yes,Masters 40-44,43,1973-06-19
DQ,M,Yuriy Garazha,Юрий Гаража,97.8,,,,,,-167.5,-167.5,-167.5,,,,,,,,,100,B,Multi-ply,Yes,Open,34,1982-06-02
1,M,Aleksey Gorislov,Алексей Горислов,89.4,,,,,,215,220,-225,220,,,,,,,220,90,B,Multi-ply,No,Masters 45-49,49,1967-01-10
1,M,Sergey Fenichev,Сергей Феничев,100.6,,,,,,215,225,-237.5,225,,,,,,,225,110,B,Multi-ply,No,Open,29,1987-08-08
1,M,Vladimir Rastorguev,Владимир Расторгуев,68,,,,,,-95,95,-100,95,,,,,,,95,75,B,Raw,No,Open,27,1989-05-29
1,M,Anton Vostrikov,Антон Востриков,83.1,,,,,,115,120,127.5,127.5,,,,,,,127.5,90,B,Raw,No,Juniors 20-23,21,1995-06-07
1,F,Anastasiya Chinenkova,Анастасия Чиненкова,55.1,,,,,,,,,,,90,97.5,105,105,,105,56,D,Raw,Yes,Teen 18-19,18,1998-06-02
1,F,Natalya Kotova,Наталья Котова,58.3,,,,,,,,,,,115,125,-132.5,125,,125,60,D,Raw,Yes,Open,27,1989-02-23
1,F,Evgeniya Vasileva,Евгения Васильева,65.2,,,,,,,,,,,127.5,135,-140,135,,135,67.5,D,Raw,Yes,Open,38,1977-12-29
1,F,Kseniya Kurylyova,Ксения Курылёва,73.7,,,,,,,,,,,85,-92.5,-92.5,85,,85,75,D,Raw,Yes,Open,24,1992-10-10
1,M,Ilya Mitin,Илья Митин,50.1,,,,,,,,,,,70,80,-90,80,,80,52,D,Raw,Yes,Teen 13-15,14,2002-07-16
1,M,Evgeniy Senko,Евгений Сенько,54.7,,,,,,,,,,,145,165,-175,165,,165,56,D,Raw,Yes,Open,27,1989-03-19
1,M,Oleg Dvoynikov,Олег Двойников,60,,,,,,,,,,,155,165,170,170,,170,60,D,Raw,Yes,Open,56,1960-10-08
1,M,Denis Bukaranov,Денис Букаранов,66,,,,,,,,,,,150,160,170,170,,170,67.5,D,Raw,Yes,Teen 13-15,15,2001-07-08
1,M,Artem Malinov,Артем Малинов,61.55,,,,,,,,,,,165,175,195,195,,195,67.5,D,Raw,Yes,Teen 16-17,16,2000-10-03
2,M,Pavel Perevedentsev,Павел Переведенцев,65.8,,,,,,,,,,,120,130,135,135,,135,67.5,D,Raw,Yes,Teen 16-17,16,2000-02-07
1,M,Aleksandr Rek,Александр Рек,67.2,,,,,,,,,,,187.5,-197.5,197.5,197.5,,197.5,67.5,D,Raw,Yes,Open,29,1987-07-13
1,M,Dmitriy Guzanov,Дмитрий Гузанов,72.6,,,,,,,,,,,195,205,207.5,207.5,,207.5,75,D,Raw,Yes,Open,29,1987-06-22
2,M,Sergey Efimtsov,Сергей Ефимцов,72.9,,,,,,,,,,,195,-207.5,207.5,207.5,,207.5,75,D,Raw,Yes,Open,25,1991-08-23
1,M,Anton Smirnov,Антон Смирнов,82.2,,,,,,,,,,,-180,190,-205,190,,190,82.5,D,Raw,Yes,Juniors 20-23,21,1995-11-11
1,M,Igor Pashkov,Игорь Пашков,79.6,,,,,,,,,,,200,220,222.5,222.5,,222.5,82.5,D,Raw,Yes,Open,30,1986-06-10
2,M,Yuriy Ryabinin,Юрий Рябинин,80.7,,,,,,,,,,,165,-180,180,180,,180,82.5,D,Raw,Yes,Open,36,1980-08-03
1,M,Vladimir Kyakhyari,Владимир Кяхяри,86.4,,,,,,,,,,,190,-215,-215,190,,190,90,D,Raw,Yes,Open,31,1985-09-21
2,M,Andrey Golosov,Андрей Голосов,88.9,,,,,,,,,,,162.5,177.5,-202.5,177.5,,177.5,90,D,Raw,Yes,Open,29,1987-02-21
1,M,Stanislav Novikov,Станислав Новиков,97.5,,,,,,,,,,,220,-240,-240,220,,220,100,D,Raw,Yes,Juniors 20-23,23,1993-03-17
1,M,Aleksey Sotov,Алексей Сотов,108.3,,,,,,,,,,,-305,305,-320,305,,305,110,D,Raw,Yes,Open,27,1989-10-04
2,M,Sergey Kudryavtsev,Сергей Кудрявцев,104.6,,,,,,,,,,,230,240,-245,240,,240,110,D,Raw,Yes,Open,33,1983-06-03
1,M,Leonid Kozhin,Леонид Кожин,65.45,,,,,,,,,,,220,240,-255,240,,240,67.5,D,Raw,No,Open,32,1983-12-27
2,M,Aleksandr Rek,Александр Рек,67.2,,,,,,,,,,,187.5,-197.5,197.5,197.5,,197.5,67.5,D,Raw,No,Open,29,1987-07-13
1,M,Artem Kotov,Артем Котов,72.2,,,,,,,,,,,225,237.5,240,240,,240,75,D,Raw,No,Open,27,1989-01-08
1,M,Sergey Golubkov,Сергей Голубков,87.7,,,,,,,,,,,245,-255,255,255,,255,90,D,Raw,No,Open,26,1990-12-14
2,M,Sergey Surkov,Сергей Сурков,88.8,,,,,,,,,,,247.5,-255,-255,247.5,,247.5,90,D,Raw,No,Open,31,1985-10-14
1,M,Sergey Zarubin,Сергей Зарубин,83.6,,,,,,,,,,,170,175,-190,175,,175,90,D,Raw,No,Masters 55-59,57,1959-09-13
1,M,Aleksey Yakushevich,Алексей Якушевич,94.4,,,,,,,,,,,285,300,307.5,307.5,,307.5,100,D,Raw,No,Open,25,1991-07-02
2,M,Artem Markov,Артем Марков,99.7,,,,,,,,,,,290,-300,-300,290,,290,100,D,Raw,No,Open,30,1986-08-03
3,M,Aleksey Ugarov,Алексей Угаров,99.5,,,,,,,,,,,257.5,272.5,-280,272.5,,272.5,100,D,Raw,No,Open,29,1987-10-22
4,M,Sergey Moiseev,Сергей Моисеев,98.6,,,,,,,,,,,255,265,-272.5,265,,265,100,D,Raw,No,Open,39,1977-08-24
5,M,Nikolay Andreev,Николай Андреев,99.9,,,,,,,,,,,225,235,245,245,,245,100,D,Raw,No,Open,26,1990-04-20
1,M,Aleksey Kostylev,Алексей Костылев,108.8,,,,,,,,,,,280,-300,,280,,280,110,D,Raw,No,Masters 40-44,43,1973-09-04
1,M,Bogdan Soldatenkov,Богдан Солдатенков,119.6,,,,,,,,,,,235,245,-255,245,,245,125,D,Raw,No,Juniors 20-23,23,1993-07-24
1,M,Sergey Zelenin,Сергей Зеленин,113.2,,,,,,,,,,,320,330,,330,,330,125,D,Raw,No,Open,46,1970-05-16
2,M,Bogdan Soldatenkov,Богдан Солдатенков,119.6,,,,,,,,,,,235,245,-255,245,,245,125,D,Raw,No,Open,23,1993-07-24
1,F,Vladislava Dluzhnevskaya,Владислава Длужневская,59.7,,,,,,100,105,110,110,,,,,,,110,60,B,Raw,Yes,Teen,16,2000-06-10
1,F,Vladislava Dluzhnevskaya,Владислава Длужневская,59.7,,,,,,100,105,110,110,,,,,,,110,60,B,Raw,No,Open,16,2000-06-10
